v 20130925 2
C 40000 40000 0 0 0 title-B.sym
C 42900 43000 1 0 0 megahdr2x18-1.sym
{
T 43600 49300 5 10 1 1 0 0 1
device=MEGAHDR2X18
T 43600 49100 5 10 1 1 0 0 1
footprint=HEADER36_1
T 43600 49500 5 10 1 1 0 0 1
refdes=J1
}
C 42400 48800 1 0 0 5V-plus-1.sym
C 45500 48800 1 0 0 5V-plus-1.sym
C 52900 50400 1 0 0 5V-plus-1.sym
C 42500 42800 1 0 0 gnd-1.sym
C 45600 42800 1 0 0 gnd-1.sym
C 53000 41500 1 0 0 gnd-1.sym
N 53100 50100 53100 50400 4
N 53100 41800 53100 42000 4
N 45400 43400 45700 43400 4
N 45700 43400 45700 43100 4
N 42600 43100 42600 43400 4
N 42600 43400 42900 43400 4
N 42600 48800 42600 48500 4
N 42600 48500 42900 48500 4
N 45400 48500 45700 48500 4
N 45700 48500 45700 48800 4
C 47400 40800 1 90 0 capacitor-1.sym
{
T 46700 41000 5 10 0 0 90 0 1
device=CAPACITOR
T 47500 41400 5 10 1 1 0 0 1
refdes=C1
T 46500 41000 5 10 0 0 90 0 1
symversion=0.1
T 47500 41200 5 10 1 1 0 0 1
value=100NF
T 47500 41000 5 10 1 1 0 0 1
footprint=0805
}
C 48500 40800 1 90 0 capacitor-1.sym
{
T 47800 41000 5 10 0 0 90 0 1
device=CAPACITOR
T 48600 41400 5 10 1 1 0 0 1
refdes=C2
T 47600 41000 5 10 0 0 90 0 1
symversion=0.1
T 48600 41200 5 10 1 1 0 0 1
value=100NF
T 48600 41000 5 10 1 1 0 0 1
footprint=0805
}
C 47000 41900 1 0 0 5V-plus-1.sym
C 47100 40300 1 0 0 gnd-1.sym
C 48200 40300 1 0 0 gnd-1.sym
N 47200 40800 47200 40600 4
N 48300 40800 48300 40600 4
N 47200 41900 47200 41700 4
N 48300 41700 48300 41800 4
N 48300 41800 47200 41800 4
N 42900 47900 41500 47900 4
{
T 41700 47900 5 10 1 1 0 0 1
netname=8031_RXD
}
N 42900 47600 41500 47600 4
{
T 41700 47600 5 10 1 1 0 0 1
netname=\_INT0\_
}
N 42900 47300 41500 47300 4
{
T 41700 47300 5 10 1 1 0 0 1
netname=T0
}
N 45400 47300 46600 47300 4
{
T 45900 47300 5 10 1 1 0 0 1
netname=T1
}
N 45400 47600 46600 47600 4
{
T 45900 47600 5 10 1 1 0 0 1
netname=\_INT1\_
}
N 45400 47900 46600 47900 4
{
T 45900 47900 5 10 1 1 0 0 1
netname=8031_TXD
}
N 42900 46100 41500 46100 4
{
T 41600 46100 5 10 1 1 0 0 1
netname=A9
}
C 41500 46100 1 90 0 busripper-1.sym
{
T 41100 46100 5 8 0 0 90 0 1
device=none
}
N 42900 46400 41500 46400 4
{
T 41600 46400 5 10 1 1 0 0 1
netname=A11
}
C 41500 46400 1 90 0 busripper-1.sym
{
T 41100 46400 5 8 0 0 90 0 1
device=none
}
N 42900 46700 41500 46700 4
{
T 41600 46700 5 10 1 1 0 0 1
netname=A13
}
C 41500 46700 1 90 0 busripper-1.sym
{
T 41100 46700 5 8 0 0 90 0 1
device=none
}
N 42900 47000 41500 47000 4
{
T 41600 47000 5 10 1 1 0 0 1
netname=A15
}
C 41500 47000 1 90 0 busripper-1.sym
{
T 41100 47000 5 8 0 0 90 0 1
device=none
}
N 45400 46100 46800 46100 4
{
T 46200 46100 5 10 1 1 0 0 1
netname=A8
}
C 46800 46100 1 0 0 busripper-1.sym
{
T 46800 46500 5 8 0 0 0 0 1
device=none
}
N 45400 46400 46800 46400 4
{
T 46200 46400 5 10 1 1 0 0 1
netname=A10
}
C 46800 46400 1 0 0 busripper-1.sym
{
T 46800 46800 5 8 0 0 0 0 1
device=none
}
N 45400 46700 46800 46700 4
{
T 46200 46700 5 10 1 1 0 0 1
netname=A12
}
C 46800 46700 1 0 0 busripper-1.sym
{
T 46800 47100 5 8 0 0 0 0 1
device=none
}
N 45400 47000 46800 47000 4
{
T 46200 47000 5 10 1 1 0 0 1
netname=A14
}
C 46800 47000 1 0 0 busripper-1.sym
{
T 46800 47400 5 8 0 0 0 0 1
device=none
}
N 42900 45500 41700 45500 4
{
T 41800 45500 5 10 1 1 0 0 1
netname=\_PSEN\_
}
N 46600 45800 45400 45800 4
{
T 46100 45800 5 10 1 1 0 0 1
netname=ALE
}
N 46600 45500 45400 45500 4
{
T 46100 45500 5 10 1 1 0 0 1
netname=GPIO
}
N 42900 45800 41700 45800 4
{
T 41800 45800 5 10 1 1 0 0 1
netname=RESET
}
N 42900 44000 41700 44000 4
{
T 41800 44000 5 10 1 1 0 0 1
netname=\_WR\_
}
N 46500 44000 45400 44000 4
{
T 46000 44000 5 10 1 1 0 0 1
netname=\_RD\_
}
N 49300 48600 51400 48600 4
{
T 49300 48600 5 10 1 1 0 0 1
netname=CLK_X2
}
N 45400 43700 47100 43700 4
{
T 46000 43700 5 10 1 1 0 0 1
netname=CLK_X2_R
}
C 40900 43600 1 0 0 resistor-1.sym
{
T 41200 44000 5 10 0 0 0 0 1
device=RESISTOR
T 41000 43400 5 10 1 1 0 0 1
refdes=R1
T 41000 43200 5 10 1 1 0 0 1
value=33
T 41300 43200 5 10 1 1 0 0 1
footprint=0805
}
N 41800 43700 42900 43700 4
{
T 41900 43700 5 10 1 1 0 0 1
netname=CLK_X1_R
}
N 40200 43700 40900 43700 4
{
T 40200 43700 5 10 1 1 0 0 1
netname=CLK_X1
}
T 50100 40700 9 16 1 0 0 0 1
8031 RETRO SHIELD FOR ARDUINO MEGA
T 49500 41000 9 10 1 0 0 0 2
Released under the Creative Commons Attribution Share-Alike 4.0 License
https://creativecommons.org/licenses/by-sa/4.0/
T 54000 40100 9 10 1 0 0 0 1
ERTURK KOCALAR
T 54000 40400 9 10 1 0 0 0 1
REV A - 2019/06/24
T 50900 40100 9 10 1 0 0 0 1
1
T 51600 40100 9 10 1 0 0 0 1
1
T 50800 40400 9 10 1 0 0 0 1
K8031.SCH
C 55700 42200 1 180 0 led-1.sym
{
T 54900 41600 5 10 0 0 0 8 1
device=LED
T 55000 42500 5 10 1 1 180 8 1
refdes=LED1
T 54900 41400 5 10 0 0 0 8 1
symversion=0.1
T 55700 42200 5 10 0 0 90 8 1
footprint=LED3
}
T 55400 42400 9 10 1 0 180 0 1
RED
U 56300 47100 56300 49500 10 1
U 56300 49500 56800 49500 10 0
{
T 56600 49600 5 10 1 1 0 0 1
netname=A
}
C 56100 48300 1 0 0 busripper-1.sym
{
T 56100 48700 5 8 0 0 0 0 1
device=none
}
C 56100 48600 1 0 0 busripper-1.sym
{
T 56100 49000 5 8 0 0 0 0 1
device=none
}
C 56100 48900 1 0 0 busripper-1.sym
{
T 56100 49300 5 8 0 0 0 0 1
device=none
}
C 56100 49200 1 0 0 busripper-1.sym
{
T 56100 49600 5 8 0 0 0 0 1
device=none
}
C 56100 47400 1 0 0 busripper-1.sym
{
T 56100 47800 5 8 0 0 0 0 1
device=none
}
C 56100 47700 1 0 0 busripper-1.sym
{
T 56100 48100 5 8 0 0 0 0 1
device=none
}
C 56100 48000 1 0 0 busripper-1.sym
{
T 56100 48400 5 8 0 0 0 0 1
device=none
}
C 56100 47100 1 0 0 busripper-1.sym
{
T 56100 47500 5 8 0 0 0 0 1
device=none
}
C 48600 48900 1 0 0 gnd-1.sym
C 49800 49500 1 180 0 capacitor-1.sym
{
T 49200 49900 5 10 1 1 0 0 1
refdes=C4
T 49200 49700 5 10 1 1 0 0 1
value=22PF
T 49200 49500 5 10 1 1 0 0 1
footprint=0805
T 49600 48800 5 10 0 0 180 0 1
device=CAPACITOR
T 49600 48600 5 10 0 0 180 0 1
symversion=0.1
}
N 48700 49200 48700 49300 4
N 48700 49300 48900 49300 4
N 49800 49300 50100 49300 4
N 50100 49300 50100 48600 4
G 45500 40853 900 947 0 0 0
./symbols/osha-logo.svg
N 54700 47100 56100 47100 4
{
T 55600 47100 5 10 1 1 0 0 1
netname=A8
}
N 54700 47400 56100 47400 4
{
T 55600 47400 5 10 1 1 0 0 1
netname=A9
}
N 54700 47700 56100 47700 4
{
T 55600 47700 5 10 1 1 0 0 1
netname=A10
}
N 54700 48000 56100 48000 4
{
T 55600 48000 5 10 1 1 0 0 1
netname=A11
}
N 54700 48300 56100 48300 4
{
T 55600 48300 5 10 1 1 0 0 1
netname=A12
}
N 54700 48600 56100 48600 4
{
T 55600 48600 5 10 1 1 0 0 1
netname=A13
}
N 54700 48900 56100 48900 4
{
T 55600 48900 5 10 1 1 0 0 1
netname=A14
}
N 54700 49200 56100 49200 4
{
T 55600 49200 5 10 1 1 0 0 1
netname=A15
}
U 56300 44400 56300 46800 10 1
U 56300 46800 56800 46800 10 0
{
T 56500 46900 5 10 1 1 0 0 1
netname=AD
}
C 56100 45600 1 0 0 busripper-1.sym
{
T 56100 46000 5 8 0 0 0 0 1
device=none
}
C 56100 45900 1 0 0 busripper-1.sym
{
T 56100 46300 5 8 0 0 0 0 1
device=none
}
C 56100 46200 1 0 0 busripper-1.sym
{
T 56100 46600 5 8 0 0 0 0 1
device=none
}
C 56100 46500 1 0 0 busripper-1.sym
{
T 56100 46900 5 8 0 0 0 0 1
device=none
}
C 56100 44700 1 0 0 busripper-1.sym
{
T 56100 45100 5 8 0 0 0 0 1
device=none
}
C 56100 45000 1 0 0 busripper-1.sym
{
T 56100 45400 5 8 0 0 0 0 1
device=none
}
C 56100 45300 1 0 0 busripper-1.sym
{
T 56100 45700 5 8 0 0 0 0 1
device=none
}
C 56100 44400 1 0 0 busripper-1.sym
{
T 56100 44800 5 8 0 0 0 0 1
device=none
}
N 54700 44400 56100 44400 4
{
T 55600 44400 5 10 1 1 0 0 1
netname=AD0
}
N 54700 44700 56100 44700 4
{
T 55600 44700 5 10 1 1 0 0 1
netname=AD1
}
N 54700 45000 56100 45000 4
{
T 55600 45000 5 10 1 1 0 0 1
netname=AD2
}
N 54700 45300 56100 45300 4
{
T 55600 45300 5 10 1 1 0 0 1
netname=AD3
}
N 54700 45600 56100 45600 4
{
T 55600 45600 5 10 1 1 0 0 1
netname=AD4
}
N 54700 45900 56100 45900 4
{
T 55600 45900 5 10 1 1 0 0 1
netname=AD5
}
N 54700 46200 56100 46200 4
{
T 55600 46200 5 10 1 1 0 0 1
netname=AD6
}
N 54700 46500 56100 46500 4
{
T 55600 46500 5 10 1 1 0 0 1
netname=AD7
}
N 55900 43800 54700 43800 4
{
T 55400 43800 5 10 1 1 0 0 1
netname=ALE
}
C 56700 43000 1 90 1 resistor-1.sym
{
T 56300 42700 5 10 0 0 90 6 1
device=RESISTOR
T 56000 42800 5 10 1 1 180 6 1
refdes=R4
T 56000 42600 5 10 1 1 180 6 1
value=680
T 56000 42400 5 10 1 1 180 6 1
footprint=0805
}
N 51400 47700 49700 47700 4
{
T 49700 47700 5 10 1 1 0 0 1
netname=RESET
}
N 51400 45000 50200 45000 4
{
T 50200 45000 5 10 1 1 0 0 1
netname=P1.7
}
N 51400 45900 50200 45900 4
{
T 50200 45900 5 10 1 1 0 0 1
netname=T0
}
N 51400 46200 50200 46200 4
{
T 50200 46200 5 10 1 1 0 0 1
netname=\_INT1\_
}
N 51400 46500 50200 46500 4
{
T 50200 46500 5 10 1 1 0 0 1
netname=\_INT0\_
}
N 51400 45600 50200 45600 4
{
T 50200 45600 5 10 1 1 0 0 1
netname=T1
}
U 47000 47300 47900 47300 10 0
{
T 47400 47400 5 10 1 1 0 0 1
netname=A
}
U 47000 46200 47000 47300 10 1
U 41300 47300 40400 47300 10 0
{
T 40400 47400 5 10 1 1 0 0 1
netname=A
}
U 41300 47300 41300 46200 10 1
T 40200 40100 9 18 1 0 0 0 2
! RELEASED TO MANUFACTURING !
! Untested !
N 55900 43200 54700 43200 4
{
T 55400 43200 5 10 1 1 0 0 1
netname=\_RD\_
}
N 55900 43500 54700 43500 4
{
T 55400 43500 5 10 1 1 0 0 1
netname=\_WR\_
}
C 54500 41500 1 0 0 gnd-1.sym
N 45400 45200 46800 45200 4
{
T 46200 45200 5 10 1 1 0 0 1
netname=AD6
}
N 45400 44900 46800 44900 4
{
T 46200 44900 5 10 1 1 0 0 1
netname=AD4
}
N 45400 44600 46800 44600 4
{
T 46200 44600 5 10 1 1 0 0 1
netname=AD2
}
N 45400 44300 46800 44300 4
{
T 46200 44300 5 10 1 1 0 0 1
netname=AD0
}
C 46800 44300 1 0 0 busripper-1.sym
{
T 46800 44700 5 8 0 0 0 0 1
device=none
}
C 46800 44600 1 0 0 busripper-1.sym
{
T 46800 45000 5 8 0 0 0 0 1
device=none
}
C 46800 44900 1 0 0 busripper-1.sym
{
T 46800 45300 5 8 0 0 0 0 1
device=none
}
C 46800 45200 1 0 0 busripper-1.sym
{
T 46800 45600 5 8 0 0 0 0 1
device=none
}
U 47000 44400 47000 45500 10 1
U 47000 45500 47900 45500 10 0
{
T 47400 45600 5 10 1 1 0 0 1
netname=AD
}
U 41300 45500 40400 45500 10 0
{
T 40400 45600 5 10 1 1 0 0 1
netname=AD
}
N 42900 44300 41500 44300 4
{
T 41600 44300 5 10 1 1 0 0 1
netname=AD1
}
C 41500 44300 1 90 0 busripper-1.sym
{
T 41100 44300 5 8 0 0 90 0 1
device=none
}
N 42900 44600 41500 44600 4
{
T 41600 44600 5 10 1 1 0 0 1
netname=AD3
}
C 41500 44600 1 90 0 busripper-1.sym
{
T 41100 44600 5 8 0 0 90 0 1
device=none
}
N 42900 44900 41500 44900 4
{
T 41600 44900 5 10 1 1 0 0 1
netname=AD5
}
C 41500 44900 1 90 0 busripper-1.sym
{
T 41100 44900 5 8 0 0 90 0 1
device=none
}
N 42900 45200 41500 45200 4
{
T 41600 45200 5 10 1 1 0 0 1
netname=AD7
}
C 41500 45200 1 90 0 busripper-1.sym
{
T 41100 45200 5 8 0 0 90 0 1
device=none
}
U 41300 45500 41300 44400 10 1
N 51400 47100 50200 47100 4
{
T 50200 47100 5 10 1 1 0 0 1
netname=8031_RXD
}
N 51400 46800 50200 46800 4
{
T 50200 46800 5 10 1 1 0 0 1
netname=8031_TXD
}
N 55900 42900 54700 42900 4
{
T 55400 42900 5 10 1 1 0 0 1
netname=\_PSEN\_
}
C 48300 49900 1 0 1 connector2-1.sym
{
T 48100 50900 5 10 0 0 0 6 1
device=CONNECTOR_2
T 48300 50700 5 10 1 1 0 6 1
refdes=GPIO
T 47500 49700 5 10 1 1 0 0 1
footprint=HEADER2_1
}
C 46200 49500 1 0 0 gnd-1.sym
N 46300 50100 46300 49800 4
N 45500 50400 46600 50400 4
{
T 45600 50400 5 10 1 1 0 0 1
netname=GPIO
}
N 46600 50100 46300 50100 4
C 51400 42000 1 0 0 8031-1.sym
{
T 52800 47100 5 10 1 1 0 0 1
device=8031
T 52800 46900 5 10 1 1 0 0 1
footprint=DIP40
T 52800 47300 5 10 1 1 0 0 1
refdes=U1
}
N 51100 48000 51400 48000 4
N 51400 44700 50200 44700 4
{
T 50200 44700 5 10 1 1 0 0 1
netname=P1.6
}
N 51400 44400 50200 44400 4
{
T 50200 44400 5 10 1 1 0 0 1
netname=P1.5
}
N 51400 44100 50200 44100 4
{
T 50200 44100 5 10 1 1 0 0 1
netname=P1.4
}
N 51400 43800 50200 43800 4
{
T 50200 43800 5 10 1 1 0 0 1
netname=P1.3
}
N 51400 43500 50200 43500 4
{
T 50200 43500 5 10 1 1 0 0 1
netname=P1.2
}
N 51400 43200 50200 43200 4
{
T 50200 43200 5 10 1 1 0 0 1
netname=P1.1
}
N 51400 42900 50200 42900 4
{
T 50200 42900 5 10 1 1 0 0 1
netname=P1.0
}
C 50700 48000 1 0 0 gnd-1.sym
N 50800 48300 50800 48400 4
N 50800 48400 51100 48400 4
N 51100 48400 51100 48000 4
C 48500 47900 1 0 0 resistor-1.sym
{
T 48800 48300 5 10 0 0 0 0 1
device=RESISTOR
T 48600 48400 5 10 1 1 0 0 1
refdes=R3
T 48600 48200 5 10 1 1 0 0 1
value=100K
T 49200 48200 5 10 1 1 0 0 1
footprint=0805
}
C 48100 48100 1 0 0 5V-plus-1.sym
N 48300 48100 48300 48000 4
N 48300 48000 48500 48000 4
N 49400 48000 50500 48000 4
N 50500 48000 50500 47700 4
C 47100 43600 1 0 0 resistor-1.sym
{
T 47400 44000 5 10 0 0 0 0 1
device=RESISTOR
T 47200 43400 5 10 1 1 0 0 1
refdes=R2
T 47200 43200 5 10 1 1 0 0 1
value=33
T 47500 43200 5 10 1 1 0 0 1
footprint=0805
}
N 48900 43700 48000 43700 4
{
T 48200 43700 5 10 1 1 0 0 1
netname=CLK_X2
}
N 51400 48900 50400 48900 4
{
T 50400 48900 5 10 1 1 0 0 1
netname=CLK_X1
}
C 49800 49600 1 0 0 gnd-1.sym
C 51000 50200 1 180 0 capacitor-1.sym
{
T 50800 49500 5 10 0 0 180 0 1
device=CAPACITOR
T 50800 49300 5 10 0 0 180 0 1
symversion=0.1
T 50400 50600 5 10 1 1 0 0 1
refdes=C3
T 50400 50400 5 10 1 1 0 0 1
value=22PF
T 50400 50200 5 10 1 1 0 0 1
footprint=0805
}
N 49900 49900 49900 50000 4
N 49900 50000 50100 50000 4
N 51000 50000 51200 50000 4
N 51200 50000 51200 48900 4
N 54600 41800 54600 42000 4
N 54600 42000 54800 42000 4
N 55700 42000 56600 42000 4
N 56600 42000 56600 42100 4
N 56600 43000 56600 44100 4
N 56600 44100 55200 44100 4
N 55200 44100 55200 43800 4
T 42800 48300 9 10 1 0 180 0 1
NC
T 45800 48300 9 10 1 0 180 0 1
NC
T 46000 42400 9 10 1 0 180 0 1
NOTE: X1 vs X2 clock based on H- or C- version of 8031.
