v 20130925 2
P 0 5400 300 5400 1 0 0
{
T 0 5400 5 10 0 0 0 0 1
pintype=in
T 355 5395 5 10 1 1 0 0 1
pinlabel=RDY
T 205 5445 5 10 1 1 0 6 1
pinnumber=2
T 0 5400 5 10 0 0 0 0 1
pinseq=2
}
P 0 6000 300 6000 1 0 0
{
T 0 6000 5 10 0 0 0 0 1
pintype=in
T 0 6000 5 10 0 0 0 0 1
pinseq=4
T 355 5995 5 10 1 1 0 0 1
pinlabel=\_IRQ\_
T 205 6045 5 10 1 1 0 6 1
pinnumber=4
}
P 0 1800 300 1800 1 0 0
{
T 0 1800 5 10 0 0 0 0 1
pintype=pas
T 0 1800 5 10 0 0 0 0 1
pinseq=5
T 355 1795 5 10 1 1 0 0 1
pinlabel=NC
T 205 1845 5 10 1 1 0 6 1
pinnumber=5
}
P 0 6300 300 6300 1 0 0
{
T 0 6300 5 10 0 0 0 0 1
pintype=in
T 0 6300 5 10 0 0 0 0 1
pinseq=6
T 355 6295 5 10 1 1 0 0 1
pinlabel=\_NMI\_
T 205 6345 5 10 1 1 0 6 1
pinnumber=6
}
P 3300 1100 3000 1100 1 0 0
{
T 3300 1100 5 10 0 0 0 0 1
pintype=out
T 3300 1100 5 10 0 0 0 0 1
pinseq=34
T 2945 1095 5 10 1 1 0 6 1
pinlabel=R/\_W\_
T 3095 1145 5 10 1 1 0 0 1
pinnumber=34
}
P 3300 7100 3000 7100 1 0 0
{
T 3300 7100 5 10 0 0 0 0 1
pintype=out
T 3300 7100 5 10 0 0 0 0 1
pinseq=25
T 2945 7095 5 10 1 1 0 6 1
pinlabel=A15
T 3095 7145 5 10 1 1 0 0 1
pinnumber=25
}
P 3300 6800 3000 6800 1 0 0
{
T 3300 6800 5 10 0 0 0 0 1
pintype=out
T 3300 6800 5 10 0 0 0 0 1
pinseq=24
T 2945 6795 5 10 1 1 0 6 1
pinlabel=A14
T 3095 6845 5 10 1 1 0 0 1
pinnumber=24
}
P 3300 6500 3000 6500 1 0 0
{
T 3300 6500 5 10 0 0 0 0 1
pintype=out
T 3300 6500 5 10 0 0 0 0 1
pinseq=23
T 2945 6495 5 10 1 1 0 6 1
pinlabel=A13
T 3095 6545 5 10 1 1 0 0 1
pinnumber=23
}
P 3300 6200 3000 6200 1 0 0
{
T 3300 6200 5 10 0 0 0 0 1
pintype=out
T 3300 6200 5 10 0 0 0 0 1
pinseq=22
T 2945 6195 5 10 1 1 0 6 1
pinlabel=A12
T 3095 6245 5 10 1 1 0 0 1
pinnumber=22
}
B 300 300 2700 7500 3 0 0 0 -1 -1 0 -1 -1 -1 -1 -1
P 0 7200 300 7200 1 0 0
{
T 0 7200 5 10 0 0 0 0 1
pintype=clk
T 355 7195 5 10 1 1 0 0 1
pinlabel=CLKIN
T 205 7245 5 10 1 1 0 6 1
pinnumber=37
T 0 7200 5 10 0 0 0 0 1
pinseq=37
}
P 0 6600 300 6600 1 0 0
{
T 0 6600 5 10 0 0 0 0 1
pintype=in
T 0 6600 5 10 0 0 0 0 1
pinseq=40
T 355 6595 5 10 1 1 0 0 1
pinlabel=\_RESET\_
T 205 6645 5 10 1 1 0 6 1
pinnumber=40
}
P 0 5100 300 5100 1 0 0
{
T 0 5100 5 10 0 0 0 0 1
pintype=in
T 355 5095 5 10 1 1 0 0 1
pinlabel=\_SO\_
T 205 5145 5 10 1 1 0 6 1
pinnumber=38
T 0 5100 5 10 0 0 0 0 1
pinseq=38
}
P 0 2400 300 2400 1 0 0
{
T 0 2400 5 10 0 0 0 0 1
pintype=tri
T 355 2395 5 10 1 1 0 0 1
pinlabel=D0
T 205 2445 5 10 1 1 0 6 1
pinnumber=33
T 0 2400 5 10 0 0 0 0 1
pinseq=33
}
P 0 2700 300 2700 1 0 0
{
T 0 2700 5 10 0 0 0 0 1
pintype=tri
T 355 2695 5 10 1 1 0 0 1
pinlabel=D1
T 205 2745 5 10 1 1 0 6 1
pinnumber=32
T 0 2700 5 10 0 0 0 0 1
pinseq=32
}
P 0 3000 300 3000 1 0 0
{
T 0 3000 5 10 0 0 0 0 1
pintype=tri
T 355 2995 5 10 1 1 0 0 1
pinlabel=D2
T 205 3045 5 10 1 1 0 6 1
pinnumber=31
T 0 3000 5 10 0 0 0 0 1
pinseq=31
}
P 0 3300 300 3300 1 0 0
{
T 0 3300 5 10 0 0 0 0 1
pintype=tri
T 355 3295 5 10 1 1 0 0 1
pinlabel=D3
T 205 3345 5 10 1 1 0 6 1
pinnumber=30
T 0 3300 5 10 0 0 0 0 1
pinseq=30
}
P 0 3600 300 3600 1 0 0
{
T 0 3600 5 10 0 0 0 0 1
pintype=tri
T 355 3595 5 10 1 1 0 0 1
pinlabel=D4
T 205 3645 5 10 1 1 0 6 1
pinnumber=29
T 0 3600 5 10 0 0 0 0 1
pinseq=29
}
P 0 3900 300 3900 1 0 0
{
T 0 3900 5 10 0 0 0 0 1
pintype=tri
T 355 3895 5 10 1 1 0 0 1
pinlabel=D5
T 205 3945 5 10 1 1 0 6 1
pinnumber=28
T 0 3900 5 10 0 0 0 0 1
pinseq=28
}
P 0 4200 300 4200 1 0 0
{
T 0 4200 5 10 0 0 0 0 1
pintype=tri
T 355 4195 5 10 1 1 0 0 1
pinlabel=D6
T 205 4245 5 10 1 1 0 6 1
pinnumber=27
T 0 4200 5 10 0 0 0 0 1
pinseq=27
}
P 0 4500 300 4500 1 0 0
{
T 0 4500 5 10 0 0 0 0 1
pintype=tri
T 355 4495 5 10 1 1 0 0 1
pinlabel=D7
T 205 4545 5 10 1 1 0 6 1
pinnumber=26
T 0 4500 5 10 0 0 0 0 1
pinseq=26
}
P 0 1500 300 1500 1 0 0
{
T 0 1500 5 10 0 0 0 0 1
pintype=pas
T 0 1500 5 10 0 0 0 0 1
pinseq=35
T 355 1495 5 10 1 1 0 0 1
pinlabel=NC
T 205 1545 5 10 1 1 0 6 1
pinnumber=35
}
P 0 1200 300 1200 1 0 0
{
T 0 1200 5 10 0 0 0 0 1
pintype=pas
T 0 1200 5 10 0 0 0 0 1
pinseq=36
T 355 1195 5 10 1 1 0 0 1
pinlabel=NC
T 205 1245 5 10 1 1 0 6 1
pinnumber=36
}
P 3300 800 3000 800 1 0 0
{
T 3300 800 5 10 0 0 0 0 1
pintype=out
T 3300 800 5 10 0 0 0 0 1
pinseq=7
T 2945 795 5 10 1 1 0 6 1
pinlabel=SYNC
T 3095 845 5 10 1 1 0 0 1
pinnumber=7
}
P 3300 5900 3000 5900 1 0 0
{
T 3300 5900 5 10 0 0 0 0 1
pintype=out
T 3300 5900 5 10 0 0 0 0 1
pinseq=20
T 2945 5895 5 10 1 1 0 6 1
pinlabel=A11
T 3095 5945 5 10 1 1 0 0 1
pinnumber=20
}
P 3300 5600 3000 5600 1 0 0
{
T 3300 5600 5 10 0 0 0 0 1
pintype=out
T 3300 5600 5 10 0 0 0 0 1
pinseq=19
T 2945 5595 5 10 1 1 0 6 1
pinlabel=A10
T 3095 5645 5 10 1 1 0 0 1
pinnumber=19
}
P 3300 5300 3000 5300 1 0 0
{
T 3300 5300 5 10 0 0 0 0 1
pintype=out
T 3300 5300 5 10 0 0 0 0 1
pinseq=18
T 2945 5295 5 10 1 1 0 6 1
pinlabel=A9
T 3095 5345 5 10 1 1 0 0 1
pinnumber=18
}
P 3300 5000 3000 5000 1 0 0
{
T 3300 5000 5 10 0 0 0 0 1
pintype=out
T 3300 5000 5 10 0 0 0 0 1
pinseq=17
T 2945 4995 5 10 1 1 0 6 1
pinlabel=A8
T 3095 5045 5 10 1 1 0 0 1
pinnumber=17
}
P 3300 4700 3000 4700 1 0 0
{
T 3300 4700 5 10 0 0 0 0 1
pintype=out
T 3300 4700 5 10 0 0 0 0 1
pinseq=16
T 2945 4695 5 10 1 1 0 6 1
pinlabel=A7
T 3095 4745 5 10 1 1 0 0 1
pinnumber=16
}
P 3300 4400 3000 4400 1 0 0
{
T 3300 4400 5 10 0 0 0 0 1
pintype=out
T 3300 4400 5 10 0 0 0 0 1
pinseq=15
T 2945 4395 5 10 1 1 0 6 1
pinlabel=A6
T 3095 4445 5 10 1 1 0 0 1
pinnumber=15
}
P 3300 4100 3000 4100 1 0 0
{
T 3300 4100 5 10 0 0 0 0 1
pintype=out
T 3300 4100 5 10 0 0 0 0 1
pinseq=14
T 2945 4095 5 10 1 1 0 6 1
pinlabel=A5
T 3095 4145 5 10 1 1 0 0 1
pinnumber=14
}
P 3300 3800 3000 3800 1 0 0
{
T 3300 3800 5 10 0 0 0 0 1
pintype=out
T 3300 3800 5 10 0 0 0 0 1
pinseq=13
T 2945 3795 5 10 1 1 0 6 1
pinlabel=A4
T 3095 3845 5 10 1 1 0 0 1
pinnumber=13
}
P 3300 3500 3000 3500 1 0 0
{
T 3300 3500 5 10 0 0 0 0 1
pintype=out
T 3300 3500 5 10 0 0 0 0 1
pinseq=12
T 2945 3495 5 10 1 1 0 6 1
pinlabel=A3
T 3095 3545 5 10 1 1 0 0 1
pinnumber=12
}
P 3300 3200 3000 3200 1 0 0
{
T 3300 3200 5 10 0 0 0 0 1
pintype=out
T 3300 3200 5 10 0 0 0 0 1
pinseq=11
T 2945 3195 5 10 1 1 0 6 1
pinlabel=A2
T 3095 3245 5 10 1 1 0 0 1
pinnumber=11
}
P 3300 2900 3000 2900 1 0 0
{
T 3300 2900 5 10 0 0 0 0 1
pintype=out
T 3300 2900 5 10 0 0 0 0 1
pinseq=10
T 2945 2895 5 10 1 1 0 6 1
pinlabel=A1
T 3095 2945 5 10 1 1 0 0 1
pinnumber=10
}
P 3300 2600 3000 2600 1 0 0
{
T 3300 2600 5 10 0 0 0 0 1
pintype=out
T 3300 2600 5 10 0 0 0 0 1
pinseq=9
T 2945 2595 5 10 1 1 0 6 1
pinlabel=A0
T 3095 2645 5 10 1 1 0 0 1
pinnumber=9
}
P 1500 0 1500 300 1 0 0
{
T 1500 0 5 10 0 0 0 0 1
pintype=pwr
T 1500 355 5 10 1 1 90 0 1
pinlabel=GND
T 1450 205 5 10 1 1 90 6 1
pinnumber=1
T 1500 0 5 10 0 0 0 0 1
pinseq=1
}
P 1500 8100 1500 7800 1 0 0
{
T 1500 8100 5 10 0 0 0 0 1
pintype=pwr
T 1500 7745 5 10 1 1 90 6 1
pinlabel=+5V
T 1450 7895 5 10 1 1 90 0 1
pinnumber=20
T 1500 8100 5 10 0 0 0 0 1
pinseq=8
}
T 1400 5100 8 10 1 1 0 0 1
device=8080
T 4700 4300 8 10 0 1 0 0 1
description=65C02 MICROPROCESSOR
T 1400 4900 8 10 1 1 0 0 1
footprint=DIP40
T 4700 4100 8 10 0 0 0 0 1
numslots=1
T 1400 5300 8 10 1 1 0 0 1
refdes=U?
P 1800 8100 1800 7800 1 0 0
{
T 1800 8100 5 10 0 0 0 0 1
pintype=pwr
T 1800 7745 5 10 1 1 90 6 1
pinlabel=+12V
T 1750 7895 5 10 1 1 90 0 1
pinnumber=28
T 1800 8100 5 10 0 0 0 0 1
pinseq=8
}
