v 20130925 2
C 40000 40000 0 0 0 title-B.sym
C 42900 43000 1 0 0 megahdr2x18-1.sym
{
T 43600 49300 5 10 1 1 0 0 1
device=MEGAHDR2X18
T 43600 49100 5 10 1 1 0 0 1
footprint=HEADER36_1
T 43600 49500 5 10 1 1 0 0 1
refdes=J1
}
C 42400 48800 1 0 0 5V-plus-1.sym
C 45500 48800 1 0 0 5V-plus-1.sym
C 53000 50500 1 0 0 5V-plus-1.sym
C 42500 42800 1 0 0 gnd-1.sym
C 45600 42800 1 0 0 gnd-1.sym
C 52900 41500 1 0 0 gnd-1.sym
N 53200 50300 53200 50500 4
N 53000 41900 53000 41800 4
N 45400 43400 45700 43400 4
N 45700 43400 45700 43100 4
N 42600 43100 42600 43400 4
N 42600 43400 42900 43400 4
N 42600 48800 42600 48500 4
N 42600 48500 42900 48500 4
N 45400 48500 45700 48500 4
N 45700 48500 45700 48800 4
C 45900 40800 1 90 0 capacitor-1.sym
{
T 45200 41000 5 10 0 0 90 0 1
device=CAPACITOR
T 46000 41400 5 10 1 1 0 0 1
refdes=C1
T 45000 41000 5 10 0 0 90 0 1
symversion=0.1
T 46000 41200 5 10 1 1 0 0 1
value=100NF
T 46000 41000 5 10 1 1 0 0 1
footprint=0805
}
C 48500 40800 1 90 0 capacitor-1.sym
{
T 47800 41000 5 10 0 0 90 0 1
device=CAPACITOR
T 48600 41400 5 10 1 1 0 0 1
refdes=C3
T 47600 41000 5 10 0 0 90 0 1
symversion=0.1
T 48600 41200 5 10 1 1 0 0 1
value=100NF
T 48600 41000 5 10 1 1 0 0 1
footprint=0805
}
C 45500 41900 1 0 0 5V-plus-1.sym
C 45600 40300 1 0 0 gnd-1.sym
C 48200 40300 1 0 0 gnd-1.sym
N 45700 40800 45700 40600 4
N 48300 40800 48300 40600 4
N 45700 41900 45700 41700 4
N 48300 41700 48300 41800 4
N 48300 41800 45700 41800 4
U 41300 49000 41300 47400 10 1
N 42900 48200 41500 48200 4
{
T 41700 48200 5 10 1 1 0 0 1
netname=MA0
}
C 41500 48200 1 90 0 busripper-1.sym
{
T 41100 48200 5 8 0 0 90 0 1
device=none
}
N 42900 47900 41500 47900 4
{
T 41700 47900 5 10 1 1 0 0 1
netname=MA2
}
C 41500 47900 1 90 0 busripper-1.sym
{
T 41100 47900 5 8 0 0 90 0 1
device=none
}
N 42900 47600 41500 47600 4
{
T 41700 47600 5 10 1 1 0 0 1
netname=MA4
}
C 41500 47600 1 90 0 busripper-1.sym
{
T 41100 47600 5 8 0 0 90 0 1
device=none
}
N 42900 47300 41500 47300 4
{
T 41700 47300 5 10 1 1 0 0 1
netname=MA6
}
C 41500 47300 1 90 0 busripper-1.sym
{
T 41100 47300 5 8 0 0 90 0 1
device=none
}
U 41300 49000 40400 49000 10 0
{
T 40400 49100 5 10 1 1 0 0 1
netname=MA
}
U 47000 47400 47000 49000 10 1
U 47000 49000 47900 49000 10 0
{
T 47400 49100 5 10 1 1 0 0 1
netname=MA
}
N 45400 47300 46800 47300 4
{
T 46300 47300 5 10 1 1 0 0 1
netname=MA7
}
C 46800 47300 1 0 0 busripper-1.sym
{
T 46800 47700 5 8 0 0 0 0 1
device=none
}
N 45400 47600 46800 47600 4
{
T 46300 47600 5 10 1 1 0 0 1
netname=MA5
}
C 46800 47600 1 0 0 busripper-1.sym
{
T 46800 48000 5 8 0 0 0 0 1
device=none
}
N 45400 47900 46800 47900 4
{
T 46300 47900 5 10 1 1 0 0 1
netname=MA3
}
C 46800 47900 1 0 0 busripper-1.sym
{
T 46800 48300 5 8 0 0 0 0 1
device=none
}
N 45400 48200 46800 48200 4
{
T 46300 48200 5 10 1 1 0 0 1
netname=MA1
}
C 46800 48200 1 0 0 busripper-1.sym
{
T 46800 48600 5 8 0 0 0 0 1
device=none
}
N 42900 45500 41700 45500 4
{
T 41900 45500 5 10 1 1 0 0 1
netname=SC1
}
N 46500 45500 45400 45500 4
{
T 45700 45500 5 10 1 1 0 0 1
netname=SC0
}
N 42900 45800 41700 45800 4
{
T 41900 45800 5 10 1 1 0 0 1
netname=\_CLEAR\_
}
N 42900 44000 41700 44000 4
{
T 41900 44000 5 10 1 1 0 0 1
netname=\_INT\_
}
N 51400 49400 50200 49400 4
{
T 50200 49400 5 10 1 1 0 0 1
netname=CLK
}
N 51400 47000 50200 47000 4
{
T 50200 47000 5 10 1 1 0 0 1
netname=\_INT\_
}
C 40900 43600 1 0 0 resistor-1.sym
{
T 41200 44000 5 10 0 0 0 0 1
device=RESISTOR
T 41000 43400 5 10 1 1 0 0 1
refdes=R1
T 41000 43200 5 10 1 1 0 0 1
value=33
T 41300 43200 5 10 1 1 0 0 1
footprint=0805
}
N 41800 43700 42900 43700 4
{
T 41900 43700 5 10 1 1 0 0 1
netname=CLK_R
}
N 40200 43700 40900 43700 4
{
T 40200 43700 5 10 1 1 0 0 1
netname=CLK
}
T 50100 40700 9 16 1 0 0 0 1
1802 RETRO SHIELD FOR ARDUINO MEGA
T 49500 41000 9 10 1 0 0 0 2
Released under the Creative Commons Attribution Share-Alike 4.0 License
https://creativecommons.org/licenses/by-sa/4.0/
T 54000 40100 9 10 1 0 0 0 1
ERTURK KOCALAR
T 54000 40400 9 10 1 0 0 0 1
REV A - 2019/06/24
T 50900 40100 9 10 1 0 0 0 1
1
T 51600 40100 9 10 1 0 0 0 1
1
T 50800 40400 9 10 1 0 0 0 1
K1802.SCH
C 49200 49500 1 90 1 led-1.sym
{
T 48600 48700 5 10 0 0 270 2 1
device=LED
T 49800 49100 5 10 1 1 0 6 1
refdes=LED1
T 48400 48700 5 10 0 0 270 2 1
symversion=0.1
T 49200 49500 5 10 0 0 0 6 1
footprint=LED3
}
N 50200 48500 51400 48500 4
{
T 50600 48500 5 10 1 1 0 0 1
netname=SC1
}
T 49400 48900 9 10 1 0 0 0 1
RED
U 56300 47300 56300 50200 10 1
U 56300 50200 56800 50200 10 0
{
T 56300 50300 5 10 1 1 0 0 1
netname=MA
}
C 56100 48500 1 0 0 busripper-1.sym
{
T 56100 48900 5 8 0 0 0 0 1
device=none
}
C 56100 48800 1 0 0 busripper-1.sym
{
T 56100 49200 5 8 0 0 0 0 1
device=none
}
C 56100 49100 1 0 0 busripper-1.sym
{
T 56100 49500 5 8 0 0 0 0 1
device=none
}
C 56100 49400 1 0 0 busripper-1.sym
{
T 56100 49800 5 8 0 0 0 0 1
device=none
}
C 56100 47600 1 0 0 busripper-1.sym
{
T 56100 48000 5 8 0 0 0 0 1
device=none
}
C 56100 47900 1 0 0 busripper-1.sym
{
T 56100 48300 5 8 0 0 0 0 1
device=none
}
C 56100 48200 1 0 0 busripper-1.sym
{
T 56100 48600 5 8 0 0 0 0 1
device=none
}
C 56100 47300 1 0 0 busripper-1.sym
{
T 56100 47700 5 8 0 0 0 0 1
device=none
}
C 49900 49700 1 0 0 gnd-1.sym
C 51100 50300 1 180 0 capacitor-1.sym
{
T 50500 50700 5 10 1 1 0 0 1
refdes=C4
T 50500 50500 5 10 1 1 0 0 1
value=22PF
T 50500 50300 5 10 1 1 0 0 1
footprint=0805
T 50900 49600 5 10 0 0 180 0 1
device=CAPACITOR
T 50900 49400 5 10 0 0 180 0 1
symversion=0.1
}
N 50000 50000 50000 50100 4
N 50000 50100 50200 50100 4
N 51100 50100 51300 50100 4
N 51300 50100 51300 49400 4
G 44100 40753 900 947 0 0 0
./symbols/osha-logo.svg
N 52900 50300 52900 50400 4
N 52900 50400 53200 50400 4
N 54700 47300 56100 47300 4
{
T 55600 47300 5 10 1 1 0 0 1
netname=MA0
}
N 54700 47600 56100 47600 4
{
T 55600 47600 5 10 1 1 0 0 1
netname=MA1
}
N 54700 47900 56100 47900 4
{
T 55600 47900 5 10 1 1 0 0 1
netname=MA2
}
N 54700 48200 56100 48200 4
{
T 55600 48200 5 10 1 1 0 0 1
netname=MA3
}
N 54700 48500 56100 48500 4
{
T 55600 48500 5 10 1 1 0 0 1
netname=MA4
}
N 54700 48800 56100 48800 4
{
T 55600 48800 5 10 1 1 0 0 1
netname=MA5
}
N 54700 49100 56100 49100 4
{
T 55600 49100 5 10 1 1 0 0 1
netname=MA6
}
N 54700 49400 56100 49400 4
{
T 55600 49400 5 10 1 1 0 0 1
netname=MA7
}
N 55900 46100 54700 46100 4
{
T 55500 46100 5 10 1 1 0 0 1
netname=\_MRD\_
}
N 55900 45800 54700 45800 4
{
T 55500 45800 5 10 1 1 0 0 1
netname=\_MWR\_
}
U 56300 43100 56300 46000 10 1
U 56300 46000 56800 46000 10 0
{
T 56300 46100 5 10 1 1 0 0 1
netname=BUS
}
C 56100 44300 1 0 0 busripper-1.sym
{
T 56100 44700 5 8 0 0 0 0 1
device=none
}
C 56100 44600 1 0 0 busripper-1.sym
{
T 56100 45000 5 8 0 0 0 0 1
device=none
}
C 56100 44900 1 0 0 busripper-1.sym
{
T 56100 45300 5 8 0 0 0 0 1
device=none
}
C 56100 45200 1 0 0 busripper-1.sym
{
T 56100 45600 5 8 0 0 0 0 1
device=none
}
C 56100 43400 1 0 0 busripper-1.sym
{
T 56100 43800 5 8 0 0 0 0 1
device=none
}
C 56100 43700 1 0 0 busripper-1.sym
{
T 56100 44100 5 8 0 0 0 0 1
device=none
}
C 56100 44000 1 0 0 busripper-1.sym
{
T 56100 44400 5 8 0 0 0 0 1
device=none
}
C 56100 43100 1 0 0 busripper-1.sym
{
T 56100 43500 5 8 0 0 0 0 1
device=none
}
N 54700 43100 56100 43100 4
{
T 55600 43100 5 10 1 1 0 0 1
netname=BUS0
}
N 54700 43400 56100 43400 4
{
T 55600 43400 5 10 1 1 0 0 1
netname=BUS1
}
N 54700 43700 56100 43700 4
{
T 55600 43700 5 10 1 1 0 0 1
netname=BUS2
}
N 54700 44000 56100 44000 4
{
T 55600 44000 5 10 1 1 0 0 1
netname=BUS3
}
N 54700 44300 56100 44300 4
{
T 55600 44300 5 10 1 1 0 0 1
netname=BUS4
}
N 54700 44600 56100 44600 4
{
T 55600 44600 5 10 1 1 0 0 1
netname=BUS5
}
N 54700 44900 56100 44900 4
{
T 55600 44900 5 10 1 1 0 0 1
netname=BUS6
}
N 54700 45200 56100 45200 4
{
T 55600 45200 5 10 1 1 0 0 1
netname=BUS7
}
N 55900 47000 54700 47000 4
{
T 55500 47000 5 10 1 1 0 0 1
netname=TPA
}
N 55900 46700 54700 46700 4
{
T 55500 46700 5 10 1 1 0 0 1
netname=TPB
}
C 49300 48400 1 0 0 resistor-1.sym
{
T 49600 48800 5 10 0 0 0 0 1
device=RESISTOR
T 49400 48200 5 10 1 1 0 0 1
refdes=R2
T 49400 48000 5 10 1 1 0 0 1
value=680
T 49800 48000 5 10 1 1 0 0 1
footprint=0805
}
N 49000 48500 49300 48500 4
{
T 49000 48500 5 10 0 0 0 0 1
netname=SYNC_LED
}
N 49000 48600 49000 48500 4
{
T 49000 48600 5 10 0 0 0 0 1
netname=SYNC_LED
}
N 49000 49600 49000 49500 4
C 48800 49600 1 0 0 5V-plus-1.sym
T 40300 41000 9 10 1 0 0 0 3
\_EF1\_ and \_EF2\_ are on testpoints.
If desired, these can be jumper-wired
to other Arduino GPIO's.
N 51400 42800 50000 42800 4
{
T 50200 42800 5 10 1 1 0 0 1
netname=Q
}
N 51400 43400 50200 43400 4
{
T 50200 43400 5 10 1 1 0 0 1
netname=N2
}
N 51400 43700 50200 43700 4
{
T 50200 43700 5 10 1 1 0 0 1
netname=N1
}
N 51400 44000 50200 44000 4
{
T 50200 44000 5 10 1 1 0 0 1
netname=N0
}
N 51400 44900 50200 44900 4
{
T 50200 44900 5 10 1 1 0 0 1
netname=\_EF3\_
}
N 49800 45200 51400 45200 4
{
T 50200 45200 5 10 1 1 0 0 1
netname=\_EF2\_
}
N 49800 45500 51400 45500 4
{
T 50200 45500 5 10 1 1 0 0 1
netname=\_EF1\_
}
N 51400 44600 50200 44600 4
{
T 50200 44600 5 10 1 1 0 0 1
netname=\_EF4\_
}
N 51400 46100 50200 46100 4
{
T 50200 46100 5 10 1 1 0 0 1
netname=\_CLEAR\_
}
N 49500 46400 51400 46400 4
{
T 50200 46400 5 10 1 1 0 0 1
netname=\_WAIT\_
}
N 50200 47300 51400 47300 4
{
T 50200 47300 5 10 1 1 0 0 1
netname=\_DMA_OUT\_
}
C 51400 41900 1 0 0 cdp1802ace-1.sym
{
T 52800 47000 5 10 1 1 0 0 1
device=CDP1802
T 52800 46800 5 10 1 1 0 0 1
footprint=DIP40
T 52800 47200 5 10 1 1 0 0 1
refdes=U1
}
N 51400 47600 50200 47600 4
{
T 50200 47600 5 10 1 1 0 0 1
netname=\_DMA_IN\_
}
T 40400 50000 9 18 1 0 0 0 2
! RELEASED TO MANUFACTURING !
! UnTested !
N 42900 47000 41700 47000 4
{
T 41900 47000 5 10 1 1 0 0 1
netname=\_EF4\_
}
N 42900 46700 41700 46700 4
{
T 41900 46700 5 10 1 1 0 0 1
netname=\_MRD\_
}
N 42900 46400 41700 46400 4
{
T 41900 46400 5 10 1 1 0 0 1
netname=TPA
}
N 42900 46100 41700 46100 4
{
T 41900 46100 5 10 1 1 0 0 1
netname=N1
}
N 45400 47000 46500 47000 4
{
T 45700 47000 5 10 1 1 0 0 1
netname=\_EF3\_
}
N 45400 46700 46500 46700 4
{
T 45700 46700 5 10 1 1 0 0 1
netname=\_MWR\_
}
N 45400 46400 46500 46400 4
{
T 45700 46400 5 10 1 1 0 0 1
netname=N2
}
N 45400 46100 46500 46100 4
{
T 45700 46100 5 10 1 1 0 0 1
netname=N0
}
U 41300 45500 40400 45500 10 0
{
T 40400 45600 5 10 1 1 0 0 1
netname=BUS
}
U 41300 45500 41300 44400 10 1
C 41500 45200 1 90 0 busripper-1.sym
{
T 41100 45200 5 8 0 0 90 0 1
device=none
}
C 41500 44900 1 90 0 busripper-1.sym
{
T 41100 44900 5 8 0 0 90 0 1
device=none
}
C 41500 44600 1 90 0 busripper-1.sym
{
T 41100 44600 5 8 0 0 90 0 1
device=none
}
C 41500 44300 1 90 0 busripper-1.sym
{
T 41100 44300 5 8 0 0 90 0 1
device=none
}
N 42900 44300 41500 44300 4
{
T 41700 44300 5 10 1 1 0 0 1
netname=BUS1
}
N 42900 44600 41500 44600 4
{
T 41700 44600 5 10 1 1 0 0 1
netname=BUS3
}
N 42900 44900 41500 44900 4
{
T 41700 44900 5 10 1 1 0 0 1
netname=BUS5
}
N 42900 45200 41500 45200 4
{
T 41700 45200 5 10 1 1 0 0 1
netname=BUS7
}
U 47000 45500 47900 45500 10 0
{
T 47400 45600 5 10 1 1 0 0 1
netname=BUS
}
C 46800 45200 1 0 0 busripper-1.sym
{
T 46800 45600 5 8 0 0 0 0 1
device=none
}
U 47000 44400 47000 45500 10 1
C 46800 44900 1 0 0 busripper-1.sym
{
T 46800 45300 5 8 0 0 0 0 1
device=none
}
C 46800 44600 1 0 0 busripper-1.sym
{
T 46800 45000 5 8 0 0 0 0 1
device=none
}
C 46800 44300 1 0 0 busripper-1.sym
{
T 46800 44700 5 8 0 0 0 0 1
device=none
}
N 45400 44300 46800 44300 4
{
T 46200 44300 5 10 1 1 0 0 1
netname=BUS0
}
N 45400 44600 46800 44600 4
{
T 46200 44600 5 10 1 1 0 0 1
netname=BUS2
}
N 45400 44900 46800 44900 4
{
T 46200 44900 5 10 1 1 0 0 1
netname=BUS4
}
N 45400 45200 46800 45200 4
{
T 46200 45200 5 10 1 1 0 0 1
netname=BUS6
}
N 45400 45800 46500 45800 4
{
T 45700 45800 5 10 1 1 0 0 1
netname=TPB
}
N 46500 43700 45400 43700 4
{
T 45700 43700 5 10 1 1 0 0 1
netname=\_DMA_OUT\_
}
N 46500 44000 45400 44000 4
{
T 45700 44000 5 10 1 1 0 0 1
netname=\_DMA_IN\_
}
C 48200 46700 1 0 0 5V-plus-1.sym
N 51400 48200 50500 48200 4
{
T 50600 48200 5 10 1 1 0 0 1
netname=SC0
}
C 48600 46300 1 0 0 resistor-1.sym
{
T 48900 46700 5 10 0 0 0 0 1
device=RESISTOR
T 48700 46100 5 10 1 1 0 0 1
refdes=R3
T 48700 45900 5 10 1 1 0 0 1
value=680
T 49100 45900 5 10 1 1 0 0 1
footprint=0805
}
C 48600 45600 1 0 0 resistor-1.sym
{
T 48900 46000 5 10 0 0 0 0 1
device=RESISTOR
T 48700 45400 5 10 1 1 0 0 1
refdes=R4
T 48700 45200 5 10 1 1 0 0 1
value=680
T 49100 45200 5 10 1 1 0 0 1
footprint=0805
}
C 48600 44900 1 0 0 resistor-1.sym
{
T 48900 45300 5 10 0 0 0 0 1
device=RESISTOR
T 48700 44700 5 10 1 1 0 0 1
refdes=R5
T 48700 44500 5 10 1 1 0 0 1
value=680
T 49100 44500 5 10 1 1 0 0 1
footprint=0805
}
N 48400 46700 48400 45000 4
N 48400 45000 48600 45000 4
N 48600 45700 48400 45700 4
N 48600 46400 48400 46400 4
N 49500 45700 49800 45700 4
N 49800 45700 49800 45500 4
N 49500 45000 49800 45000 4
N 49800 45000 49800 45200 4
C 50000 42600 1 0 1 led-1.sym
{
T 49200 43200 5 10 0 0 180 2 1
device=LED
T 49800 42300 5 10 1 1 0 6 1
refdes=LED2
T 49200 43400 5 10 0 0 180 2 1
symversion=0.1
T 50000 42600 5 10 0 0 270 6 1
footprint=LED3
}
C 48000 42700 1 0 0 resistor-1.sym
{
T 48300 43100 5 10 0 0 0 0 1
device=RESISTOR
T 48100 42500 5 10 1 1 0 0 1
refdes=R6
T 48100 42300 5 10 1 1 0 0 1
value=680
T 48500 42300 5 10 1 1 0 0 1
footprint=0805
}
C 47700 42400 1 0 0 gnd-1.sym
N 47800 42700 47800 42800 4
N 47800 42800 48000 42800 4
N 48900 42800 49100 42800 4
T 49400 42100 9 10 1 0 0 0 1
RED
C 47200 40800 1 90 0 capacitor-1.sym
{
T 46500 41000 5 10 0 0 90 0 1
device=CAPACITOR
T 47300 41400 5 10 1 1 0 0 1
refdes=C2
T 46300 41000 5 10 0 0 90 0 1
symversion=0.1
T 47300 41200 5 10 1 1 0 0 1
value=100NF
T 47300 41000 5 10 1 1 0 0 1
footprint=0805
}
N 47000 40800 47000 40600 4
C 46900 40300 1 0 0 gnd-1.sym
N 47000 41700 47000 41800 4
T 47300 40700 9 10 1 0 0 0 1
VCC
T 48600 40700 9 10 1 0 0 0 1
VDD
T 46000 40700 9 10 1 0 0 0 1
HDR
