v 20130925 2
P 0 4800 300 4800 1 0 0
{
T 0 4800 5 10 0 0 270 0 1
pintype=tri
T 355 4795 5 10 1 1 0 0 1
pinlabel=NC
T 205 4845 5 10 1 1 0 6 1
pinnumber=1
T 0 4800 5 10 0 0 270 0 1
pinseq=5
}
P 0 4500 300 4500 1 0 0
{
T 0 4500 5 10 0 0 270 0 1
pintype=pwr
T 355 4495 5 10 1 1 0 0 1
pinlabel=IOREF
T 205 4545 5 10 1 1 0 6 1
pinnumber=2
T 0 4500 5 10 0 0 270 0 1
pinseq=7
}
P 0 4200 300 4200 1 0 0
{
T 0 4200 5 10 0 0 270 0 1
pintype=io
T 0 4200 5 10 0 0 270 0 1
pinseq=9
T 355 4195 5 10 1 1 0 0 1
pinlabel=\_RESET\_
T 205 4245 5 10 1 1 0 6 1
pinnumber=3
}
P 0 3900 300 3900 1 0 0
{
T 0 3900 5 10 0 0 270 0 1
pintype=pwr
T 0 3900 5 10 0 0 270 0 1
pinseq=11
T 355 3895 5 10 1 1 0 0 1
pinlabel=3V3
T 205 3945 5 10 1 1 0 6 1
pinnumber=4
}
P 0 3600 300 3600 1 0 0
{
T 0 3600 5 10 0 0 270 0 1
pintype=pwr
T 0 3600 5 10 0 0 270 0 1
pinseq=13
T 355 3595 5 10 1 1 0 0 1
pinlabel=5V0
T 205 3645 5 10 1 1 0 6 1
pinnumber=5
}
P 0 3300 300 3300 1 0 0
{
T 0 3300 5 10 0 0 270 0 1
pintype=pwr
T 0 3300 5 10 0 0 270 0 1
pinseq=15
T 355 3295 5 10 1 1 0 0 1
pinlabel=GND
T 205 3345 5 10 1 1 0 6 1
pinnumber=6
}
P 0 3000 300 3000 1 0 0
{
T 0 3000 5 10 0 0 270 0 1
pintype=pwr
T 0 3000 5 10 0 0 270 0 1
pinseq=17
T 355 2995 5 10 1 1 0 0 1
pinlabel=GND
T 205 3045 5 10 1 1 0 6 1
pinnumber=7
}
P 0 2700 300 2700 1 0 0
{
T 0 2700 5 10 0 0 270 0 1
pintype=pwr
T 0 2700 5 10 0 0 270 0 1
pinseq=18
T 355 2695 5 10 1 1 0 0 1
pinlabel=V_IN
T 205 2745 5 10 1 1 0 6 1
pinnumber=8
}
P 0 2100 300 2100 1 0 0
{
T 0 2100 5 10 0 0 270 0 1
pintype=io
T 0 2100 5 10 0 0 270 0 1
pinseq=21
T 355 2095 5 10 1 1 0 0 1
pinlabel=A0
T 205 2145 5 10 1 1 0 6 1
pinnumber=9
}
P 0 1800 300 1800 1 0 0
{
T 0 1800 5 10 0 0 270 0 1
pintype=io
T 0 1800 5 10 0 0 270 0 1
pinseq=23
T 355 1795 5 10 1 1 0 0 1
pinlabel=A1
T 205 1845 5 10 1 1 0 6 1
pinnumber=10
}
P 0 1500 300 1500 1 0 0
{
T 0 1500 5 10 0 0 270 0 1
pintype=io
T 0 1500 5 10 0 0 270 0 1
pinseq=25
T 355 1495 5 10 1 1 0 0 1
pinlabel=A2
T 205 1545 5 10 1 1 0 6 1
pinnumber=11
}
P 0 1200 300 1200 1 0 0
{
T 0 1200 5 10 0 0 270 0 1
pintype=io
T 0 1200 5 10 0 0 270 0 1
pinseq=27
T 355 1195 5 10 1 1 0 0 1
pinlabel=A3
T 205 1245 5 10 1 1 0 6 1
pinnumber=12
}
P 0 900 300 900 1 0 0
{
T 0 900 5 10 0 0 270 0 1
pintype=io
T 0 900 5 10 0 0 270 0 1
pinseq=29
T 355 895 5 10 1 1 0 0 1
pinlabel=A4/SDA
T 205 945 5 10 1 1 0 6 1
pinnumber=13
}
P 0 600 300 600 1 0 0
{
T 0 600 5 10 0 0 270 0 1
pintype=io
T 0 600 5 10 0 0 270 0 1
pinseq=31
T 355 595 5 10 1 1 0 0 1
pinlabel=A5/SCL
T 205 645 5 10 1 1 0 6 1
pinnumber=14
}
P 4000 600 3700 600 1 0 0
{
T 4000 600 5 10 0 0 90 0 1
pintype=io
T 4000 600 5 10 0 0 90 0 1
pinseq=32
T 3645 595 5 10 1 1 0 6 1
pinlabel=RXD/D0
T 3795 645 5 10 1 1 0 0 1
pinnumber=15
}
P 4000 900 3700 900 1 0 0
{
T 4000 900 5 10 0 0 90 0 1
pintype=io
T 4000 900 5 10 0 0 90 0 1
pinseq=30
T 3645 895 5 10 1 1 0 6 1
pinlabel=TXD/D1
T 3795 945 5 10 1 1 0 0 1
pinnumber=16
}
P 4000 1200 3700 1200 1 0 0
{
T 4000 1200 5 10 0 0 90 0 1
pintype=io
T 4000 1200 5 10 0 0 90 0 1
pinseq=28
T 3645 1195 5 10 1 1 0 6 1
pinlabel=D2
T 3795 1245 5 10 1 1 0 0 1
pinnumber=17
}
P 4000 1500 3700 1500 1 0 0
{
T 4000 1500 5 10 0 0 90 0 1
pintype=io
T 4000 1500 5 10 0 0 90 0 1
pinseq=26
T 3645 1495 5 10 1 1 0 6 1
pinlabel=D3
T 3795 1545 5 10 1 1 0 0 1
pinnumber=18
}
P 4000 1800 3700 1800 1 0 0
{
T 4000 1800 5 10 0 0 90 0 1
pintype=io
T 4000 1800 5 10 0 0 90 0 1
pinseq=24
T 3645 1795 5 10 1 1 0 6 1
pinlabel=D4
T 3795 1845 5 10 1 1 0 0 1
pinnumber=19
}
P 4000 2100 3700 2100 1 0 0
{
T 4000 2100 5 10 0 0 90 0 1
pintype=io
T 4000 2100 5 10 0 0 90 0 1
pinseq=22
T 3645 2095 5 10 1 1 0 6 1
pinlabel=D5
T 3795 2145 5 10 1 1 0 0 1
pinnumber=20
}
P 4000 2400 3700 2400 1 0 0
{
T 4000 2400 5 10 0 0 90 0 1
pintype=io
T 4000 2400 5 10 0 0 90 0 1
pinseq=20
T 3645 2395 5 10 1 1 0 6 1
pinlabel=D6
T 3795 2445 5 10 1 1 0 0 1
pinnumber=21
}
P 4000 2700 3700 2700 1 0 0
{
T 4000 2700 5 10 0 0 90 0 1
pintype=io
T 4000 2700 5 10 0 0 90 0 1
pinseq=19
T 3645 2695 5 10 1 1 0 6 1
pinlabel=D7
T 3795 2745 5 10 1 1 0 0 1
pinnumber=22
}
P 4000 3900 3700 3900 1 0 0
{
T 4000 3900 5 10 0 0 90 0 1
pintype=io
T 4000 3900 5 10 0 0 90 0 1
pinseq=12
T 3645 3895 5 10 1 1 0 6 1
pinlabel=SS/D10
T 3795 3945 5 10 1 1 0 0 1
pinnumber=25
}
P 4000 4200 3700 4200 1 0 0
{
T 4000 4200 5 10 0 0 90 0 1
pintype=io
T 4000 4200 5 10 0 0 90 0 1
pinseq=10
T 3645 4195 5 10 1 1 0 6 1
pinlabel=MOSI/D11
T 3795 4245 5 10 1 1 0 0 1
pinnumber=26
}
P 4000 4500 3700 4500 1 0 0
{
T 4000 4500 5 10 0 0 90 0 1
pintype=io
T 4000 4500 5 10 0 0 90 0 1
pinseq=8
T 3645 4495 5 10 1 1 0 6 1
pinlabel=MISO/D12
T 3795 4545 5 10 1 1 0 0 1
pinnumber=27
}
P 4000 4800 3700 4800 1 0 0
{
T 4000 4800 5 10 0 0 90 0 1
pintype=io
T 4000 4800 5 10 0 0 90 0 1
pinseq=6
T 3645 4795 5 10 1 1 0 6 1
pinlabel=SCK/D13
T 3795 4845 5 10 1 1 0 0 1
pinnumber=28
}
P 4000 5100 3700 5100 1 0 0
{
T 4000 5100 5 10 0 0 90 0 1
pintype=pwr
T 4000 5100 5 10 0 0 90 0 1
pinseq=4
T 3645 5095 5 10 1 1 0 6 1
pinlabel=GND
T 3795 5145 5 10 1 1 0 0 1
pinnumber=29
}
P 4000 5400 3700 5400 1 0 0
{
T 4000 5400 5 10 0 0 90 0 1
pintype=pwr
T 4000 5400 5 10 0 0 90 0 1
pinseq=3
T 3645 5395 5 10 1 1 0 6 1
pinlabel=AREF
T 3795 5445 5 10 1 1 0 0 1
pinnumber=30
}
P 4000 5700 3700 5700 1 0 0
{
T 4000 5700 5 10 0 0 90 0 1
pintype=io
T 4000 5700 5 10 0 0 90 0 1
pinseq=2
T 3645 5695 5 10 1 1 0 6 1
pinlabel=SDA
T 3795 5745 5 10 1 1 0 0 1
pinnumber=31
}
P 4000 6000 3700 6000 1 0 0
{
T 4000 6000 5 10 0 0 90 0 1
pintype=io
T 4000 6000 5 10 0 0 90 0 1
pinseq=1
T 3645 5995 5 10 1 1 0 6 1
pinlabel=SCL
T 3795 6045 5 10 1 1 0 0 1
pinnumber=32
}
P 4000 3300 3700 3300 1 0 0
{
T 4000 3300 5 10 0 0 90 0 1
pintype=io
T 4000 3300 5 10 0 0 90 0 1
pinseq=16
T 3645 3295 5 10 1 1 0 6 1
pinlabel=D8
T 3795 3345 5 10 1 1 0 0 1
pinnumber=23
}
P 4000 3600 3700 3600 1 0 0
{
T 4000 3600 5 10 0 0 90 0 1
pintype=io
T 4000 3600 5 10 0 0 90 0 1
pinseq=14
T 3645 3595 5 10 1 1 0 6 1
pinlabel=D9
T 3795 3645 5 10 1 1 0 0 1
pinnumber=24
}
L 300 300 300 6600 3 0 0 0 -1 -1
L 3700 6600 3700 300 3 0 0 0 -1 -1
L 3700 6600 300 6600 3 0 0 0 -1 -1
L 300 300 600 300 3 0 0 0 -1 -1
L 3700 300 2800 300 3 0 0 0 -1 -1
L 600 300 900 0 3 0 0 0 -1 -1
L 2800 300 2500 0 3 0 0 0 -1 -1
L 2500 0 900 0 3 0 0 0 -1 -1
T 494 6300 8 10 1 1 0 0 1
device=ARDUINO_SHIELD
T 494 6000 8 10 0 0 0 0 1
footprint=ARDUINO_HEADER
T 494 5758 8 10 0 0 0 0 1
description=ARDUINO SHIELD
T 494 6721 8 10 1 1 0 0 1
refdes=J?
T 494 5486 8 10 0 0 0 0 1
numslots=1
