v 20130925 2
C 40000 40000 0 0 0 title-B.sym
C 42900 43000 1 0 0 megahdr2x18-1.sym
{
T 43600 49300 5 10 1 1 0 0 1
device=MEGAHDR2X18
T 43600 49100 5 10 1 1 0 0 1
footprint=HEADER36_1
T 43600 49500 5 10 1 1 0 0 1
refdes=J1
}
C 42400 48800 1 0 0 5V-plus-1.sym
C 45500 48800 1 0 0 5V-plus-1.sym
C 52600 50600 1 0 0 5V-plus-1.sym
C 42500 42800 1 0 0 gnd-1.sym
C 45600 42800 1 0 0 gnd-1.sym
C 52800 41400 1 0 0 gnd-1.sym
N 52800 50500 52800 50600 4
N 52900 41800 52900 41700 4
N 45400 43400 45700 43400 4
N 45700 43400 45700 43100 4
N 42600 43100 42600 43400 4
N 42600 43400 42900 43400 4
N 42600 48800 42600 48500 4
N 42600 48500 42900 48500 4
N 45400 48500 45700 48500 4
N 45700 48500 45700 48800 4
C 47400 40800 1 90 0 capacitor-1.sym
{
T 46700 41000 5 10 0 0 90 0 1
device=CAPACITOR
T 47500 41400 5 10 1 1 0 0 1
refdes=C1
T 46500 41000 5 10 0 0 90 0 1
symversion=0.1
T 47500 41200 5 10 1 1 0 0 1
value=100NF
T 47500 41000 5 10 1 1 0 0 1
footprint=0805
}
C 48500 40800 1 90 0 capacitor-1.sym
{
T 47800 41000 5 10 0 0 90 0 1
device=CAPACITOR
T 48600 41400 5 10 1 1 0 0 1
refdes=C2
T 47600 41000 5 10 0 0 90 0 1
symversion=0.1
T 48600 41200 5 10 1 1 0 0 1
value=100NF
T 48600 41000 5 10 1 1 0 0 1
footprint=0805
}
C 47000 41900 1 0 0 5V-plus-1.sym
C 47100 40300 1 0 0 gnd-1.sym
C 48200 40300 1 0 0 gnd-1.sym
N 47200 40800 47200 40600 4
N 48300 40800 48300 40600 4
N 47200 41900 47200 41700 4
N 48300 41700 48300 41800 4
N 48300 41800 47200 41800 4
N 42900 45500 41700 45500 4
{
T 41800 45500 5 10 1 1 0 0 1
netname=RESET
}
N 46600 45800 45400 45800 4
{
T 45500 45800 5 10 1 1 0 0 1
netname=pg2
}
N 42900 45800 41700 45800 4
{
T 42300 45800 5 10 1 1 0 0 1
netname=pd7
}
N 42900 44000 41700 44000 4
{
T 41800 44000 5 10 1 1 0 0 1
netname=DX11
}
N 46500 44000 45400 44000 4
{
T 46000 44000 5 10 1 1 0 0 1
netname=DX10
}
N 51300 48400 50300 48400 4
{
T 50300 48400 5 10 1 1 0 0 1
netname=CLK
}
N 45400 43700 46500 43700 4
{
T 46000 43700 5 10 1 1 0 0 1
netname=DX8
}
C 47200 45400 1 0 0 resistor-1.sym
{
T 47500 45800 5 10 0 0 0 0 1
device=RESISTOR
T 47300 45700 5 10 1 1 0 0 1
refdes=R1
T 47300 45200 5 10 1 1 0 0 1
value=33
T 47600 45200 5 10 1 1 0 0 1
footprint=0805
}
T 50100 40700 9 16 1 0 0 0 1
6120 RETRO SHIELD FOR ARDUINO MEGA
T 49500 41000 9 10 1 0 0 0 2
Released under the Creative Commons Attribution Share-Alike 4.0 License
https://creativecommons.org/licenses/by-sa/4.0/
T 54000 40100 9 10 1 0 0 0 1
ERTURK KOCALAR
T 54000 40400 9 10 1 0 0 0 1
REV 0.1 - 2019/12/24
T 50900 40100 9 10 1 0 0 0 1
1
T 51600 40100 9 10 1 0 0 0 1
1
T 50800 40400 9 10 1 0 0 0 1
K6120.SCH
C 41800 50600 1 180 0 led-1.sym
{
T 41000 50000 5 10 0 0 0 8 1
device=LED
T 41400 49900 5 10 1 1 180 8 1
refdes=LED1
T 41000 49800 5 10 0 0 0 8 1
symversion=0.1
T 41800 50600 5 10 0 0 90 8 1
footprint=LED3
}
T 41400 49700 9 10 1 0 0 0 1
RED
U 56200 44500 56200 48100 10 1
U 56200 48100 56700 48100 10 0
{
T 56500 48200 5 10 1 1 0 0 1
netname=DX
}
C 56000 46900 1 0 0 busripper-1.sym
{
T 56000 47300 5 8 0 0 0 0 1
device=none
}
C 56000 47200 1 0 0 busripper-1.sym
{
T 56000 47600 5 8 0 0 0 0 1
device=none
}
C 56000 47500 1 0 0 busripper-1.sym
{
T 56000 47900 5 8 0 0 0 0 1
device=none
}
C 56000 47800 1 0 0 busripper-1.sym
{
T 56000 48200 5 8 0 0 0 0 1
device=none
}
C 56000 46000 1 0 0 busripper-1.sym
{
T 56000 46400 5 8 0 0 0 0 1
device=none
}
C 56000 46300 1 0 0 busripper-1.sym
{
T 56000 46700 5 8 0 0 0 0 1
device=none
}
C 56000 46600 1 0 0 busripper-1.sym
{
T 56000 47000 5 8 0 0 0 0 1
device=none
}
C 56000 45700 1 0 0 busripper-1.sym
{
T 56000 46100 5 8 0 0 0 0 1
device=none
}
C 48700 47700 1 0 0 gnd-1.sym
C 49900 48300 1 180 0 capacitor-1.sym
{
T 49100 48400 5 10 1 1 0 0 1
refdes=C3
T 49500 48400 5 10 1 1 0 0 1
value=22PF
T 49300 47700 5 10 1 1 0 0 1
footprint=0805
T 49700 47600 5 10 0 0 180 0 1
device=CAPACITOR
T 49700 47400 5 10 0 0 180 0 1
symversion=0.1
}
N 48800 48000 48800 48100 4
N 48800 48100 49000 48100 4
N 49900 48100 50800 48100 4
G 45500 40853 900 947 0 0 0
./symbols/osha-logo.svg
N 54600 45700 56000 45700 4
{
T 55400 45700 5 10 1 1 0 0 1
netname=DX7
}
N 54600 46000 56000 46000 4
{
T 55400 46000 5 10 1 1 0 0 1
netname=DX6
}
N 54600 46300 56000 46300 4
{
T 55400 46300 5 10 1 1 0 0 1
netname=DX5
}
N 54600 46600 56000 46600 4
{
T 55400 46600 5 10 1 1 0 0 1
netname=DX4
}
N 54600 46900 56000 46900 4
{
T 55400 46900 5 10 1 1 0 0 1
netname=DX3
}
N 54600 47200 56000 47200 4
{
T 55400 47200 5 10 1 1 0 0 1
netname=DX2
}
N 54600 47500 56000 47500 4
{
T 55400 47500 5 10 1 1 0 0 1
netname=DX1
}
N 54600 47800 56000 47800 4
{
T 55400 47800 5 10 1 1 0 0 1
netname=DX0
}
N 55800 43300 54600 43300 4
{
T 55000 43300 5 10 1 1 0 0 1
netname=\_LXMAR\_
}
C 42200 50300 1 0 0 resistor-1.sym
{
T 42500 50700 5 10 0 0 0 0 1
device=RESISTOR
T 42500 50600 5 10 1 1 0 0 1
refdes=R2
T 42200 50100 5 10 1 1 0 0 1
value=680
T 42800 50100 5 10 1 1 0 0 1
footprint=0805
}
N 51300 44200 50800 44200 4
T 40400 40400 9 18 1 0 0 0 1
WORK IN PROGRESS
N 55800 43000 54600 43000 4
{
T 55000 43000 5 10 1 1 0 0 1
netname=\_LXPAR\_
}
N 55800 42700 54600 42700 4
{
T 55000 42700 5 10 1 1 0 0 1
netname=\_LXDAR\_
}
N 45400 45200 46800 45200 4
{
T 46200 45200 5 10 1 1 0 0 1
netname=DX6
}
N 45400 44900 46800 44900 4
{
T 46200 44900 5 10 1 1 0 0 1
netname=DX4
}
N 45400 44600 46800 44600 4
{
T 46200 44600 5 10 1 1 0 0 1
netname=DX2
}
N 45400 44300 46800 44300 4
{
T 46200 44300 5 10 1 1 0 0 1
netname=DX0
}
N 42900 44300 41500 44300 4
{
T 41600 44300 5 10 1 1 0 0 1
netname=DX1
}
N 42900 44600 41500 44600 4
{
T 41600 44600 5 10 1 1 0 0 1
netname=DX3
}
N 42900 44900 41500 44900 4
{
T 41600 44900 5 10 1 1 0 0 1
netname=DX5
}
N 42900 45200 41500 45200 4
{
T 41600 45200 5 10 1 1 0 0 1
netname=DX7
}
N 51300 49000 50100 49000 4
{
T 50100 49000 5 10 1 1 0 0 1
netname=RESET
}
C 56000 45400 1 0 0 busripper-1.sym
{
T 56000 45800 5 8 0 0 0 0 1
device=none
}
N 54600 45400 56000 45400 4
{
T 55400 45400 5 10 1 1 0 0 1
netname=DX8
}
C 56000 45100 1 0 0 busripper-1.sym
{
T 56000 45500 5 8 0 0 0 0 1
device=none
}
N 54600 45100 56000 45100 4
{
T 55400 45100 5 10 1 1 0 0 1
netname=DX9
}
C 56000 44800 1 0 0 busripper-1.sym
{
T 56000 45200 5 8 0 0 0 0 1
device=none
}
N 54600 44800 56000 44800 4
{
T 55400 44800 5 10 1 1 0 0 1
netname=DX10
}
C 56000 44500 1 0 0 busripper-1.sym
{
T 56000 44900 5 8 0 0 0 0 1
device=none
}
N 54600 44500 56000 44500 4
{
T 55400 44500 5 10 1 1 0 0 1
netname=DX11
}
N 55800 43900 54600 43900 4
{
T 55000 43900 5 10 1 1 0 0 1
netname=\_READ\_
}
N 55800 43600 54600 43600 4
{
T 55000 43600 5 10 1 1 0 0 1
netname=\_WRITE\_
}
N 40500 50600 40500 50400 4
N 40500 50400 40900 50400 4
N 41800 50400 42200 50400 4
C 50700 43800 1 0 0 gnd-1.sym
N 50800 44100 50800 44200 4
N 44300 50400 43100 50400 4
{
T 43600 50400 5 10 1 1 0 0 1
netname=\_IFETCH\_
}
T 50900 46000 9 10 1 0 0 0 1
NC
N 46600 47300 45400 47300 4
{
T 46000 47300 5 10 1 1 0 0 1
netname=\_DATAF\_
}
N 46800 47600 45400 47600 4
{
T 46000 47600 5 10 1 1 0 0 1
netname=\_LXMAR\_
}
N 46800 47900 45400 47900 4
{
T 46000 47900 5 10 1 1 0 0 1
netname=\_IOCLR\_
}
N 46800 48200 45400 48200 4
{
T 46000 48200 5 10 1 1 0 0 1
netname=\_WRITE\_
}
N 46800 46100 45400 46100 4
{
T 45500 46100 5 10 1 1 0 0 1
netname=pc0
}
N 46800 46400 45400 46400 4
{
T 45500 46400 5 10 1 1 0 0 1
netname=pc2
}
N 46800 46700 45400 46700 4
{
T 45500 46700 5 10 1 1 0 0 1
netname=pc4
}
N 46800 47000 45400 47000 4
{
T 45500 47000 5 10 1 1 0 0 1
netname=pc6
}
N 41500 46100 42900 46100 4
{
T 42300 46100 5 10 1 1 0 0 1
netname=pc1
}
N 41500 46400 42900 46400 4
{
T 42300 46400 5 10 1 1 0 0 1
netname=pc3
}
N 41500 46700 42900 46700 4
{
T 42300 46700 5 10 1 1 0 0 1
netname=pc5
}
N 41500 47000 42900 47000 4
{
T 42300 47000 5 10 1 1 0 0 1
netname=pc7
}
N 41500 47300 42900 47300 4
{
T 41700 47300 5 10 1 1 0 0 1
netname=\_LXPAR\_
}
N 41500 47600 42900 47600 4
{
T 41700 47600 5 10 1 1 0 0 1
netname=\_LXDAR\_
}
N 41500 47900 42900 47900 4
{
T 41700 47900 5 10 1 1 0 0 1
netname=\_MSEL\_
}
N 41500 48200 42900 48200 4
{
T 41700 48200 5 10 1 1 0 0 1
netname=\_READ\_
}
C 51300 41800 1 0 0 6120-1.sym
{
T 52700 47700 5 10 1 1 0 0 1
device=HD6120
T 52700 47500 5 10 1 1 0 0 1
footprint=DIP40
T 52700 47900 5 10 1 1 0 0 1
refdes=U1
}
N 50800 48100 50800 48400 4
C 50600 46400 1 0 0 5V-plus-1.sym
N 50800 45100 50800 46400 4
N 50800 46300 51300 46300 4
N 50800 45400 51300 45400 4
N 50800 45100 51300 45100 4
N 51300 43300 50100 43300 4
{
T 50100 43300 5 10 1 1 0 0 1
netname=\_IFETCH\_
}
T 50900 44800 9 10 1 0 0 0 1
NC
T 50900 43000 9 10 1 0 0 0 1
NC
N 51300 47500 50100 47500 4
{
T 50100 47500 5 10 1 1 0 0 1
netname=\_CPREQ\_
}
N 51300 47200 50100 47200 4
{
T 50100 47200 5 10 1 1 0 0 1
netname=\_INTREQ\_
}
N 51300 46900 50100 46900 4
{
T 50100 46900 5 10 1 1 0 0 1
netname=\_INTGNT\_
}
N 51300 49300 50100 49300 4
{
T 50100 49300 5 10 1 1 0 0 1
netname=\_IOCLR\_
}
N 55800 49600 54600 49600 4
{
T 55000 49600 5 10 1 1 0 0 1
netname=\_SKIP\_
}
N 55800 49300 54600 49300 4
{
T 55000 49300 5 10 1 1 0 0 1
netname=\_C0\_/EMA0
}
N 55800 49000 54600 49000 4
{
T 55000 49000 5 10 1 1 0 0 1
netname=\_C1\_/EMA1
}
N 55800 48700 54600 48700 4
{
T 55000 48700 5 10 1 1 0 0 1
netname=EMA2
}
N 55800 48400 54600 48400 4
{
T 55000 48400 5 10 1 1 0 0 1
netname=\_DATAF\_
}
N 45400 45500 47200 45500 4
{
T 45500 45500 5 10 1 1 0 0 1
netname=CLK_R
}
N 48100 45500 48800 45500 4
{
T 48400 45500 5 10 1 1 0 0 1
netname=CLK
}
N 42900 43700 41700 43700 4
{
T 41800 43700 5 10 1 1 0 0 1
netname=DX9
}
C 40300 50600 1 0 0 5V-plus-1.sym
N 41200 47100 41000 47100 4
N 41000 47100 41000 45900 4
N 41000 45900 41200 45900 4
N 46900 47200 47100 47200 4
N 47100 47200 47100 45700 4
N 47100 45700 46900 45700 4
T 47300 46400 9 10 1 0 0 0 1
FREE GPIO's
T 40700 45900 9 10 1 0 90 0 1
FREE GPIO's
