v 20130925 2
C 39600 40000 0 0 0 title-C.sym
C 56900 47700 1 90 0 capacitor-1.sym
{
T 56200 47900 5 10 0 0 90 0 1
device=CAPACITOR
T 56000 47900 5 10 0 0 90 0 1
symversion=0.1
T 57000 48300 5 10 1 1 0 0 1
refdes=C1
T 57000 48100 5 10 1 1 0 0 1
value=100NF
T 57000 47900 5 10 1 1 0 0 1
footprint=0805
}
C 58000 47700 1 90 0 capacitor-1.sym
{
T 57300 47900 5 10 0 0 90 0 1
device=CAPACITOR
T 57100 47900 5 10 0 0 90 0 1
symversion=0.1
T 58100 48300 5 10 1 1 0 0 1
refdes=C2
T 58100 48100 5 10 1 1 0 0 1
value=100NF
T 58100 47900 5 10 1 1 0 0 1
footprint=0805
}
C 56500 48800 1 0 0 5V-plus-1.sym
C 56600 47200 1 0 0 gnd-1.sym
C 57700 47200 1 0 0 gnd-1.sym
N 56700 47700 56700 47500 4
N 57800 47700 57800 47500 4
N 56700 48800 56700 48600 4
N 57800 48600 57800 48700 4
N 56700 48700 59400 48700 4
C 60300 48300 1 180 0 led-1.sym
{
T 59500 47700 5 10 0 0 0 8 1
device=LED
T 59500 47500 5 10 0 0 0 8 1
symversion=0.1
T 60300 48300 5 10 0 0 90 8 1
footprint=LED3
T 59900 47600 5 10 1 1 180 8 1
refdes=PWR
}
G 52800 40253 900 947 0 0 0
./symbols/osha-logo.svg
C 58900 47600 1 0 0 gnd-1.sym
N 59000 47900 59000 48100 4
N 59000 48100 59400 48100 4
N 60700 48700 60700 48100 4
N 60700 48100 60300 48100 4
C 40200 53700 1 0 0 connector8-1.sym
{
T 40300 56900 5 10 0 0 0 0 1
device=CONNECTOR_8
T 39900 56000 5 10 1 1 0 0 1
refdes=P2
T 40200 53500 5 10 1 1 0 0 1
footprint=JUMPER8
}
C 40200 50600 1 0 0 connector8-1.sym
{
T 40300 53800 5 10 0 0 0 0 1
device=CONNECTOR_8
T 39900 52900 5 10 1 1 0 0 1
refdes=P3
T 40100 50400 5 10 1 1 0 0 1
footprint=JUMPER8
}
C 43700 47700 1 0 0 connector8-1.sym
{
T 43800 50900 5 10 0 0 0 0 1
device=CONNECTOR_8
T 43400 50000 5 10 1 1 0 0 1
refdes=P7
T 43600 47500 5 10 1 1 0 0 1
footprint=JUMPER8
}
C 43700 50600 1 0 0 connector8-1.sym
{
T 43800 53800 5 10 0 0 0 0 1
device=CONNECTOR_8
T 43400 52900 5 10 1 1 0 0 1
refdes=P6
T 43600 50400 5 10 1 1 0 0 1
footprint=JUMPER8
}
C 40200 47700 1 0 0 connector8-1.sym
{
T 40300 50900 5 10 0 0 0 0 1
device=CONNECTOR_8
T 39900 50000 5 10 1 1 0 0 1
refdes=P4
T 40100 47500 5 10 1 1 0 0 1
footprint=JUMPER8
}
C 43700 53500 1 0 0 connector10-1.sym
{
T 45600 56500 5 10 0 0 0 0 1
device=CONNECTOR_10
T 43400 56400 5 10 1 1 0 0 1
refdes=P5
T 43500 53300 5 10 1 1 0 0 1
footprint=JUMPER10
}
N 41900 54500 43000 54500 4
N 41900 54200 43000 54200 4
C 42900 53500 1 0 0 gnd-1.sym
N 43000 54500 43000 53800 4
N 41900 51700 42700 51700 4
{
T 42100 51700 5 10 1 1 0 0 1
netname=SDA
}
N 41900 51400 42700 51400 4
{
T 42100 51400 5 10 1 1 0 0 1
netname=SCL
}
N 45400 56400 46200 56400 4
{
T 45600 56400 5 10 1 1 0 0 1
netname=SCL
}
N 45400 56100 46200 56100 4
{
T 45600 56100 5 10 1 1 0 0 1
netname=SDA
}
N 45400 55200 46200 55200 4
{
T 45600 55200 5 10 1 1 0 0 1
netname=SCK
}
N 45400 54300 46200 54300 4
{
T 45600 54300 5 10 1 1 0 0 1
netname=SS
}
N 45400 55500 46700 55500 4
N 46700 55500 46700 55300 4
C 46600 55000 1 0 0 gnd-1.sym
N 45400 52000 46200 52000 4
{
T 45600 52000 5 10 1 1 0 0 1
netname=KBD_DAT
}
N 45400 51400 46200 51400 4
{
T 45600 51400 5 10 1 1 0 0 1
netname=KBD_INT
}
N 45400 48200 46400 48200 4
{
T 45600 48200 5 10 1 1 0 0 1
netname=SDA
}
N 45400 47900 47300 47900 4
{
T 45600 47900 5 10 1 1 0 0 1
netname=SCL
}
C 57300 50000 1 0 0 megahdr2x18-1.sym
{
T 58000 56300 5 10 1 1 0 0 1
device=MEGAHDR2X18
T 58000 56100 5 10 1 1 0 0 1
footprint=HEADER36_1
T 58000 56500 5 10 1 1 0 0 1
refdes=J1
}
C 56800 55800 1 0 0 5V-plus-1.sym
C 59900 55800 1 0 0 5V-plus-1.sym
C 56900 49800 1 0 0 gnd-1.sym
C 60000 49800 1 0 0 gnd-1.sym
N 59800 50400 60100 50400 4
N 60100 50400 60100 50100 4
N 57000 50100 57000 50400 4
N 57000 50400 57300 50400 4
N 57000 55800 57000 55500 4
N 57000 55500 57300 55500 4
N 59800 55500 60100 55500 4
N 60100 55500 60100 55800 4
N 57300 55200 56200 55200 4
{
T 56300 55200 5 10 1 1 0 0 1
netname=AD0_5V
}
N 57300 54900 56200 54900 4
{
T 56300 54900 5 10 1 1 0 0 1
netname=AD2_5V
}
N 57300 54300 56200 54300 4
{
T 56300 54300 5 10 1 1 0 0 1
netname=AD6_5V
}
N 57300 54600 56200 54600 4
{
T 56300 54600 5 10 1 1 0 0 1
netname=AD4_5V
}
N 57300 53700 56200 53700 4
{
T 56300 53700 5 10 1 1 0 0 1
netname=AD13_5V
}
N 57300 53100 56200 53100 4
{
T 56300 53100 5 10 1 1 0 0 1
netname=AD9_5V
}
N 57300 53400 56200 53400 4
{
T 56300 53400 5 10 1 1 0 0 1
netname=AD11_5V
}
N 57300 52800 56200 52800 4
{
T 56300 52800 5 10 1 1 0 0 1
netname=PD7_5V
}
N 57300 52500 56200 52500 4
{
T 56300 52500 5 10 1 1 0 0 1
netname=PG1_5V
}
N 57300 51900 56200 51900 4
{
T 56300 51900 5 10 1 1 0 0 1
netname=D5_5V
}
N 57300 52200 56200 52200 4
{
T 56300 52200 5 10 1 1 0 0 1
netname=D7_5V
}
N 57300 51300 56200 51300 4
{
T 56300 51300 5 10 1 1 0 0 1
netname=D1_5V
}
N 57300 50700 56200 50700 4
{
T 56300 50700 5 10 1 1 0 0 1
netname=PB1_5V
}
N 57300 51000 56200 51000 4
{
T 56300 51000 5 10 1 1 0 0 1
netname=PB3_5V
}
N 57300 51600 56200 51600 4
{
T 56300 51600 5 10 1 1 0 0 1
netname=D3_5V
}
N 57300 54000 56200 54000 4
{
T 56300 54000 5 10 1 1 0 0 1
netname=AD15_5V
}
N 61000 54900 59800 54900 4
{
T 60100 54900 5 10 1 1 0 0 1
netname=AD3_5V
}
N 61000 54300 59800 54300 4
{
T 60100 54300 5 10 1 1 0 0 1
netname=AD7_5V
}
N 61000 54600 59800 54600 4
{
T 60100 54600 5 10 1 1 0 0 1
netname=AD5_5V
}
N 61000 53700 59800 53700 4
{
T 60100 53700 5 10 1 1 0 0 1
netname=AD12_5V
}
N 61000 53100 59800 53100 4
{
T 60100 53100 5 10 1 1 0 0 1
netname=AD8_5V
}
N 61000 53400 59800 53400 4
{
T 60100 53400 5 10 1 1 0 0 1
netname=AD10_5V
}
N 61000 52800 59800 52800 4
{
T 60100 52800 5 10 1 1 0 0 1
netname=PG2_5V
}
N 61000 52500 59800 52500 4
{
T 60100 52500 5 10 1 1 0 0 1
netname=PG0_5V
}
N 61000 51900 59800 51900 4
{
T 60100 51900 5 10 1 1 0 0 1
netname=D4_5V
}
N 61000 52200 59800 52200 4
{
T 60100 52200 5 10 1 1 0 0 1
netname=D6_5V
}
N 61000 51300 59800 51300 4
{
T 60100 51300 5 10 1 1 0 0 1
netname=D0_5V
}
N 61000 50700 59800 50700 4
{
T 60100 50700 5 10 1 1 0 0 1
netname=PB0_5V
}
N 61000 51000 59800 51000 4
{
T 60100 51000 5 10 1 1 0 0 1
netname=PB2_5V
}
N 61000 51600 59800 51600 4
{
T 60100 51600 5 10 1 1 0 0 1
netname=D2_5V
}
N 61000 54000 59800 54000 4
{
T 60100 54000 5 10 1 1 0 0 1
netname=AD14_5V
}
N 61000 55200 59800 55200 4
{
T 60100 55200 5 10 1 1 0 0 1
netname=AD1_5V
}
C 50700 47600 1 0 0 teensy35-1.sym
{
T 52300 47700 5 10 1 1 0 0 1
device=TEENSY35
T 52700 47500 5 10 1 1 0 0 1
footprint=DIP48
T 51900 56200 5 10 1 1 0 0 1
refdes=U1
}
C 42400 56200 1 0 0 5V-plus-1.sym
N 41900 54800 42600 54800 4
N 42600 53900 42600 56200 4
N 41900 55700 42600 55700 4
C 42800 55300 1 0 0 3.3V-plus-1.sym
N 41900 55100 43000 55100 4
N 43000 55100 43000 55300 4
N 42600 53900 41900 53900 4
C 53600 55800 1 0 0 5V-plus-1.sym
N 53500 55400 53800 55400 4
N 53800 55400 53800 55800 4
C 50000 55400 1 0 0 gnd-1.sym
N 50700 55400 50500 55400 4
N 50500 55400 50500 55900 4
N 50500 55900 50100 55900 4
N 50100 55900 50100 55700 4
C 54200 50900 1 0 0 gnd-1.sym
N 53500 51200 54300 51200 4
N 50700 53600 49900 53600 4
{
T 49900 53600 5 10 1 1 0 0 1
netname=DATA7
}
N 54300 53600 53500 53600 4
{
T 53700 53600 5 10 1 1 0 0 1
netname=DATA5
}
N 50700 52700 49900 52700 4
{
T 49900 52700 5 10 1 1 0 0 1
netname=DATA3
}
N 54300 51800 53500 51800 4
{
T 53700 51800 5 10 1 1 0 0 1
netname=DATA1
}
N 54300 53900 53500 53900 4
{
T 53700 53900 5 10 1 1 0 0 1
netname=DATA6
}
N 50700 53300 49900 53300 4
{
T 49900 53300 5 10 1 1 0 0 1
netname=DATA4
}
N 50700 53000 49900 53000 4
{
T 49900 53000 5 10 1 1 0 0 1
netname=DATA2
}
N 50700 54500 49900 54500 4
{
T 49900 54500 5 10 1 1 0 0 1
netname=DATA0
}
N 54300 52100 53500 52100 4
{
T 53800 52100 5 10 1 1 0 0 1
netname=AD0
}
N 54300 54500 53500 54500 4
{
T 53800 54500 5 10 1 1 0 0 1
netname=AD2
}
N 50700 51800 49900 51800 4
{
T 50100 51800 5 10 1 1 0 0 1
netname=AD6
}
N 50700 52100 49900 52100 4
{
T 50100 52100 5 10 1 1 0 0 1
netname=AD4
}
N 50700 53900 49900 53900 4
{
T 50100 53900 5 10 1 1 0 0 1
netname=AD13
}
N 54300 49400 53500 49400 4
{
T 53800 49400 5 10 1 1 0 0 1
netname=AD9
}
N 54300 50000 53500 50000 4
{
T 53800 50000 5 10 1 1 0 0 1
netname=AD11
}
N 50700 50000 49900 50000 4
{
T 50100 50000 5 10 1 1 0 0 1
netname=AD15
}
N 50700 52400 49900 52400 4
{
T 50100 52400 5 10 1 1 0 0 1
netname=AD3
}
N 50700 51500 49900 51500 4
{
T 50100 51500 5 10 1 1 0 0 1
netname=AD7
}
N 50700 54200 49900 54200 4
{
T 50100 54200 5 10 1 1 0 0 1
netname=AD12
}
N 54300 49100 53500 49100 4
{
T 53800 49100 5 10 1 1 0 0 1
netname=AD8
}
N 54300 49700 53500 49700 4
{
T 53800 49700 5 10 1 1 0 0 1
netname=AD10
}
N 50700 50300 49900 50300 4
{
T 50100 50300 5 10 1 1 0 0 1
netname=AD14
}
N 54300 54200 53500 54200 4
{
T 53800 54200 5 10 1 1 0 0 1
netname=AD1
}
N 53500 53300 54300 53300 4
{
T 53700 53300 5 10 1 1 0 0 1
netname=SCL
}
N 53500 53000 54300 53000 4
{
T 53700 53000 5 10 1 1 0 0 1
netname=SDA
}
N 54300 52400 53500 52400 4
{
T 53900 52400 5 10 1 1 0 0 1
netname=PG1
}
N 54300 52700 53500 52700 4
{
T 53900 52700 5 10 1 1 0 0 1
netname=PG2
}
N 50700 50900 49900 50900 4
{
T 50000 50900 5 10 1 1 0 0 1
netname=PD7
}
N 49700 54800 50700 54800 4
{
T 49800 54800 5 10 1 1 0 0 1
netname=MISO_TX1
}
N 49700 55100 50700 55100 4
{
T 49800 55100 5 10 1 1 0 0 1
netname=MOSI_RX1
}
N 49900 48800 50700 48800 4
{
T 50100 48800 5 10 1 1 0 0 1
netname=SS
}
N 49900 48500 50700 48500 4
{
T 50100 48500 5 10 1 1 0 0 1
netname=SCK
}
N 45400 55800 46700 55800 4
N 46700 55800 46700 55900 4
C 49300 51300 1 0 0 3.3V-plus-1.sym
N 49500 51300 49500 51200 4
N 49500 51200 50700 51200 4
C 53900 55400 1 0 0 3.3V-plus-1.sym
C 53700 55000 1 0 0 gnd-1.sym
N 53500 55100 53600 55100 4
N 53600 55100 53600 55300 4
N 53600 55300 53800 55300 4
N 53500 54800 54100 54800 4
N 54100 54800 54100 55400 4
N 50700 49700 49900 49700 4
{
T 50000 49700 5 10 1 1 0 0 1
netname=PB0_R
}
N 54300 50300 53500 50300 4
{
T 53600 50300 5 10 1 1 0 0 1
netname=PB1_R
}
N 50700 49400 49900 49400 4
{
T 50000 49400 5 10 1 1 0 0 1
netname=PB2
}
N 50700 49100 49900 49100 4
{
T 50000 49100 5 10 1 1 0 0 1
netname=PB3
}
C 59400 48600 1 0 0 resistor-1.sym
{
T 59700 49000 5 10 0 0 0 0 1
device=RESISTOR
T 59600 48900 5 10 1 1 0 0 1
refdes=R1
T 59400 48400 5 10 1 1 0 0 1
value=680
T 59900 48400 5 10 1 1 0 0 1
footprint=0805
}
N 60300 48700 60700 48700 4
N 50700 50600 49900 50600 4
{
T 50000 50600 5 10 1 1 0 0 1
netname=AD5
}
N 54300 51500 53500 51500 4
{
T 53700 51500 5 10 1 1 0 0 1
netname=PG0
}
N 45400 54900 46500 54900 4
{
T 45500 54900 5 10 1 1 0 0 1
netname=MISO_TX1
}
N 45400 54600 46500 54600 4
{
T 45500 54600 5 10 1 1 0 0 1
netname=MOSI_RX1
}
N 45400 51100 46500 51100 4
{
T 45500 51100 5 10 1 1 0 0 1
netname=MISO_TX1
}
N 45400 50800 46500 50800 4
{
T 45500 50800 5 10 1 1 0 0 1
netname=MOSI_RX1
}
N 53500 48800 54300 48800 4
{
T 53600 48800 5 10 1 1 0 0 1
netname=KBD_DAT
}
N 53500 48500 54300 48500 4
{
T 53600 48500 5 10 1 1 0 0 1
netname=KBD_INT
}
C 46500 55900 1 0 0 5V-plus-1.sym
C 47100 53300 1 0 0 switch-pushbutton-no-1-4p.sym
{
T 47500 54000 5 10 0 0 0 0 1
device=SWITCH_PUSHBUTTON_NO
T 47500 54400 5 10 0 0 0 0 1
footprint=TYCO_fsm2j.fp
T 47500 53800 5 10 1 1 0 0 1
refdes=SW1
}
C 54600 47600 1 0 0 switch-pushbutton-no-1-4p.sym
{
T 55000 48300 5 10 0 0 0 0 1
device=SWITCH_PUSHBUTTON_NO
T 55000 48700 5 10 0 0 0 0 1
footprint=TYCO_fsm2j.fp
T 55000 48100 5 10 1 1 0 0 1
refdes=SW2
}
N 53500 50900 54000 50900 4
{
T 53700 50900 5 10 1 1 0 0 1
netname=S2
}
N 53500 50600 54000 50600 4
{
T 53700 50600 5 10 1 1 0 0 1
netname=S1
}
C 54400 47100 1 0 0 gnd-1.sym
N 54500 47400 54500 47800 4
N 54500 47600 54600 47600 4
N 54500 47800 54600 47800 4
N 47000 53100 47000 53500 4
N 47000 53300 47100 53300 4
N 47000 53500 47100 53500 4
C 46900 52800 1 0 0 gnd-1.sym
N 55600 47800 55700 47800 4
N 55700 47300 55700 48700 4
N 55100 47300 55700 47300 4
{
T 55200 47300 5 10 1 1 0 0 1
netname=S2
}
N 55600 47600 55700 47600 4
N 48100 53500 48200 53500 4
N 48200 53000 48200 54400 4
N 48200 53000 47600 53000 4
{
T 47700 53000 5 10 1 1 0 0 1
netname=S1
}
N 48100 53300 48200 53300 4
C 47700 46700 1 0 0 resistor-1.sym
{
T 48000 47100 5 10 0 0 0 0 1
device=RESISTOR
T 48200 46500 5 10 0 1 0 0 1
footprint=0805
T 47900 47000 5 10 1 1 0 0 1
refdes=R4
T 48300 47000 5 10 1 1 0 0 1
value=33
}
C 47700 46400 1 0 0 resistor-1.sym
{
T 48000 46800 5 10 0 0 0 0 1
device=RESISTOR
T 48200 46200 5 10 0 1 0 0 1
footprint=0805
T 47900 46200 5 10 1 1 0 0 1
refdes=R5
T 48300 46200 5 10 1 1 0 0 1
value=33
}
N 49200 46800 48600 46800 4
{
T 48700 46800 5 10 1 1 0 0 1
netname=PB0
}
N 49200 46500 48600 46500 4
{
T 48700 46500 5 10 1 1 0 0 1
netname=PB1
}
N 47700 46800 47100 46800 4
{
T 47200 46800 5 10 1 1 0 0 1
netname=PB0_R
}
N 47700 46500 47100 46500 4
{
T 47200 46500 5 10 1 1 0 0 1
netname=PB1_R
}
C 48300 54400 1 90 0 resistor-1.sym
{
T 47900 54700 5 10 0 0 90 0 1
device=RESISTOR
T 48000 54600 5 10 1 1 90 0 1
refdes=R6
T 48500 54400 5 10 1 1 90 0 1
value=4.7k
T 48500 54900 5 10 1 1 90 0 1
footprint=0805
}
N 48200 55300 48200 55400 4
C 55800 48700 1 90 0 resistor-1.sym
{
T 55400 49000 5 10 0 0 90 0 1
device=RESISTOR
T 55500 48900 5 10 1 1 90 0 1
refdes=R7
T 56000 48700 5 10 1 1 90 0 1
value=4.7k
T 56000 49200 5 10 1 1 90 0 1
footprint=0805
}
N 55700 49600 55700 49700 4
C 48000 55400 1 0 0 3.3V-plus-1.sym
C 55500 49700 1 0 0 3.3V-plus-1.sym
T 54600 40700 9 16 1 0 0 0 1
RETROSHIELD TO TEENSY 3.5 ADAPTER
T 54600 41000 9 10 1 0 0 0 2
Released under the Creative Commons Attribution Share-Alike 4.0 License
https://creativecommons.org/licenses/by-sa/4.0/
T 58500 40100 9 10 1 0 0 0 1
ERTURK KOCALAR
T 58500 40400 9 10 1 0 0 0 1
REV 0.9 - 2019/08/26
T 55000 40100 9 10 1 0 0 0 1
1
T 56700 40100 9 10 1 0 0 0 1
1
T 55000 40400 9 10 1 0 0 0 1
TEENSY.SCH
T 59900 47400 9 10 1 0 0 0 1
RED
T 41200 46200 9 18 1 0 0 0 1
MY UGLIEST SCHEMATICS :)
T 40900 56000 9 10 1 0 0 0 1
NC
T 40900 55700 9 10 1 0 0 0 1
IOREF
T 40900 55400 9 10 1 0 0 0 1
RESET
T 40900 55100 9 10 1 0 0 0 1
3V3
T 40900 54800 9 10 1 0 0 0 1
5V0
T 40900 54500 9 10 1 0 0 0 1
GND
T 40900 54200 9 10 1 0 0 0 1
GND
T 40900 53900 9 10 1 0 0 0 1
Vin
T 40900 52900 9 10 1 0 0 0 1
A0
T 40900 52600 9 10 1 0 0 0 1
A1
T 40900 52300 9 10 1 0 0 0 1
A2
T 40900 52000 9 10 1 0 0 0 1
A3
T 40900 51700 9 10 1 0 0 0 1
A4_SDA
T 40900 51400 9 10 1 0 0 0 1
A5_SCL
T 40900 51100 9 10 1 0 0 0 1
A6
T 40900 50800 9 10 1 0 0 0 1
A7
T 40900 50000 9 10 1 0 0 0 1
A8
T 40900 49700 9 10 1 0 0 0 1
A9
T 40900 49400 9 10 1 0 0 0 1
A10
T 40900 49100 9 10 1 0 0 0 1
A11
T 40900 48800 9 10 1 0 0 0 1
A12
T 40900 48500 9 10 1 0 0 0 1
A13
T 40900 48200 9 10 1 0 0 0 1
A14
T 40900 47900 9 10 1 0 0 0 1
A15
T 44400 50000 9 10 1 0 0 0 1
D14
T 44400 49700 9 10 1 0 0 0 1
D15
T 44400 49400 9 10 1 0 0 0 1
D16
T 44400 49100 9 10 1 0 0 0 1
D17
T 44400 48800 9 10 1 0 0 0 1
D18
T 44400 48500 9 10 1 0 0 0 1
D19
T 44400 48200 9 10 1 0 0 0 1
D20_SDA
T 44400 47900 9 10 1 0 0 0 1
D21_SCL
T 44400 52900 9 10 1 0 0 0 1
D7
T 44400 52600 9 10 1 0 0 0 1
D6
T 44400 52300 9 10 1 0 0 0 1
D5
T 44200 52000 9 10 1 0 0 0 1
D4_KBD_DAT
T 44400 51700 9 10 1 0 0 0 1
D3
T 44200 51400 9 10 1 0 0 0 1
D2_KBD_INT
T 44400 51100 9 10 1 0 0 0 1
D1_TXD
T 44400 50800 9 10 1 0 0 0 1
D0_RXD
T 44400 56400 9 10 1 0 0 0 1
SCL
T 44400 56100 9 10 1 0 0 0 1
SDA
T 44400 55800 9 10 1 0 0 0 1
AREF
T 44400 55500 9 10 1 0 0 0 1
GND
T 44400 55200 9 10 1 0 0 0 1
D13_SCK
T 44400 54900 9 10 1 0 0 0 1
D12_MISO
T 44400 54600 9 10 1 0 0 0 1
D11_MOSI
T 44400 54300 9 10 1 0 0 0 1
D10_SS
T 44400 54000 9 10 1 0 0 0 1
D9
T 44400 53700 9 10 1 0 0 0 1
D8
T 51700 55100 9 6 1 0 0 0 1
MOSI1
T 51700 54800 9 6 1 0 0 0 1
MISO1
T 51700 48800 9 6 1 0 0 0 1
CS1
T 51700 48500 9 6 1 0 0 0 1
SCK1
T 52100 55100 9 6 1 0 0 0 1
RX1
T 52100 54800 9 6 1 0 0 0 1
TX1
T 52300 53300 9 6 1 0 0 0 1
SCL0
T 52300 53000 9 6 1 0 0 0 1
SDA0
T 47200 45800 9 10 1 0 0 0 1
Series Termination
C 47400 48600 1 90 0 resistor-1.sym
{
T 47000 48900 5 10 0 0 90 0 1
device=RESISTOR
T 47100 48800 5 10 1 1 90 0 1
refdes=R3
T 47600 48600 5 10 1 1 90 0 1
value=4.7k
T 47600 49100 5 10 1 1 90 0 1
footprint=0805
}
C 47100 49600 1 0 0 5V-plus-1.sym
N 47300 49500 47300 49600 4
C 46200 49600 1 0 0 5V-plus-1.sym
N 46400 49500 46400 49600 4
N 46400 48600 46400 48200 4
T 49400 47600 9 10 1 0 0 0 1
User Buttons
C 40700 40000 1 0 0 txs0108e-1.sym
{
T 41700 44600 5 10 1 1 0 0 1
device=TXS0108
T 41600 40400 5 10 1 1 0 0 1
footprint=TSSOP20
T 42000 44900 5 10 1 1 0 0 1
refdes=U2
}
N 40700 43600 39900 43600 4
{
T 40000 43600 5 10 1 1 0 0 1
netname=AD0
}
N 40700 43000 39900 43000 4
{
T 40000 43000 5 10 1 1 0 0 1
netname=AD2
}
N 40700 41800 39900 41800 4
{
T 40000 41800 5 10 1 1 0 0 1
netname=AD6
}
N 40700 42400 39900 42400 4
{
T 40000 42400 5 10 1 1 0 0 1
netname=AD4
}
N 45600 43000 44800 43000 4
{
T 44900 43000 5 10 1 1 0 0 1
netname=AD13
}
N 45600 41800 44800 41800 4
{
T 44900 41800 5 10 1 1 0 0 1
netname=AD9
}
N 45600 42400 44800 42400 4
{
T 44900 42400 5 10 1 1 0 0 1
netname=AD11
}
N 57300 43200 56500 43200 4
{
T 56600 43200 5 10 1 1 0 0 1
netname=PB1
}
N 57300 43800 56500 43800 4
{
T 56600 43800 5 10 1 1 0 0 1
netname=PB3
}
N 45600 43600 44800 43600 4
{
T 44900 43600 5 10 1 1 0 0 1
netname=AD15
}
N 40700 42700 39900 42700 4
{
T 40000 42700 5 10 1 1 0 0 1
netname=AD3
}
N 40700 41500 39900 41500 4
{
T 40000 41500 5 10 1 1 0 0 1
netname=AD7
}
N 40700 42100 39900 42100 4
{
T 40000 42100 5 10 1 1 0 0 1
netname=AD5
}
N 45600 42700 44800 42700 4
{
T 44900 42700 5 10 1 1 0 0 1
netname=AD12
}
N 45600 41500 44800 41500 4
{
T 44900 41500 5 10 1 1 0 0 1
netname=AD8
}
N 45600 42100 44800 42100 4
{
T 44900 42100 5 10 1 1 0 0 1
netname=AD10
}
N 57300 42900 56500 42900 4
{
T 56600 42900 5 10 1 1 0 0 1
netname=PB0
}
N 57300 43500 56500 43500 4
{
T 56600 43500 5 10 1 1 0 0 1
netname=PB2
}
N 45600 43300 44800 43300 4
{
T 44900 43300 5 10 1 1 0 0 1
netname=AD14
}
N 40700 43300 39900 43300 4
{
T 40000 43300 5 10 1 1 0 0 1
netname=AD1
}
C 43600 44500 1 0 0 5V-plus-1.sym
C 40200 44500 1 0 0 3.3V-plus-1.sym
N 40400 44500 40400 44200 4
N 40400 44200 40700 44200 4
N 43500 44200 43800 44200 4
N 43800 44200 43800 44500 4
C 40000 40700 1 0 0 3.3V-plus-1.sym
N 40200 40700 40200 40500 4
N 40200 40500 40600 40500 4
N 40600 40500 40600 40900 4
N 40600 40900 40700 40900 4
C 43700 40300 1 0 0 gnd-1.sym
N 43500 40900 43800 40900 4
N 43800 40900 43800 40600 4
N 44300 43600 43500 43600 4
{
T 43600 43600 5 10 1 1 0 0 1
netname=AD0_5V
}
N 44300 43000 43500 43000 4
{
T 43600 43000 5 10 1 1 0 0 1
netname=AD2_5V
}
N 44300 41800 43500 41800 4
{
T 43600 41800 5 10 1 1 0 0 1
netname=AD6_5V
}
N 44300 42400 43500 42400 4
{
T 43600 42400 5 10 1 1 0 0 1
netname=AD4_5V
}
N 44300 42700 43500 42700 4
{
T 43600 42700 5 10 1 1 0 0 1
netname=AD3_5V
}
N 44300 41500 43500 41500 4
{
T 43600 41500 5 10 1 1 0 0 1
netname=AD7_5V
}
N 44300 42100 43500 42100 4
{
T 43600 42100 5 10 1 1 0 0 1
netname=AD5_5V
}
N 44300 43300 43500 43300 4
{
T 43600 43300 5 10 1 1 0 0 1
netname=AD1_5V
}
C 48500 44500 1 0 0 5V-plus-1.sym
C 45100 44500 1 0 0 3.3V-plus-1.sym
N 45300 44500 45300 44200 4
N 45300 44200 45600 44200 4
N 48400 44200 48700 44200 4
N 48700 44200 48700 44500 4
C 44900 40700 1 0 0 3.3V-plus-1.sym
N 45100 40700 45100 40500 4
N 45100 40500 45500 40500 4
N 45500 40500 45500 40900 4
N 45500 40900 45600 40900 4
C 48600 40300 1 0 0 gnd-1.sym
N 48400 40900 48700 40900 4
N 48700 40900 48700 40600 4
N 49200 43000 48400 43000 4
{
T 48500 43000 5 10 1 1 0 0 1
netname=AD13_5V
}
N 49200 41800 48400 41800 4
{
T 48500 41800 5 10 1 1 0 0 1
netname=AD9_5V
}
N 49200 42400 48400 42400 4
{
T 48500 42400 5 10 1 1 0 0 1
netname=AD11_5V
}
N 49200 43600 48400 43600 4
{
T 48500 43600 5 10 1 1 0 0 1
netname=AD15_5V
}
N 49200 42700 48400 42700 4
{
T 48500 42700 5 10 1 1 0 0 1
netname=AD12_5V
}
N 49200 41500 48400 41500 4
{
T 48500 41500 5 10 1 1 0 0 1
netname=AD8_5V
}
N 49200 42100 48400 42100 4
{
T 48500 42100 5 10 1 1 0 0 1
netname=AD10_5V
}
N 49200 43300 48400 43300 4
{
T 48500 43300 5 10 1 1 0 0 1
netname=AD14_5V
}
C 52400 41400 1 0 0 txs0108e-1.sym
{
T 53400 46000 5 10 1 1 0 0 1
device=TXS0108
T 53300 41800 5 10 1 1 0 0 1
footprint=TSSOP20
T 53700 46300 5 10 1 1 0 0 1
refdes=U4
}
C 55300 45900 1 0 0 5V-plus-1.sym
C 51900 45900 1 0 0 3.3V-plus-1.sym
N 52100 45900 52100 45600 4
N 52100 45600 52400 45600 4
N 55200 45600 55500 45600 4
N 55500 45600 55500 45900 4
C 51700 42100 1 0 0 3.3V-plus-1.sym
N 51900 42100 51900 41900 4
N 51900 41900 52300 41900 4
N 52300 41900 52300 42300 4
N 52300 42300 52400 42300 4
C 55400 41700 1 0 0 gnd-1.sym
N 55200 42300 55500 42300 4
N 55500 42300 55500 42000 4
C 57300 41400 1 0 0 txs0108e-1.sym
{
T 58300 46000 5 10 1 1 0 0 1
device=TXS0108
T 58200 41800 5 10 1 1 0 0 1
footprint=TSSOP20
T 58600 46300 5 10 1 1 0 0 1
refdes=U5
}
C 60200 45900 1 0 0 5V-plus-1.sym
C 56800 45900 1 0 0 3.3V-plus-1.sym
N 57000 45900 57000 45600 4
N 57000 45600 57300 45600 4
N 60100 45600 60400 45600 4
N 60400 45600 60400 45900 4
C 56600 42100 1 0 0 3.3V-plus-1.sym
N 56800 42100 56800 41900 4
N 56800 41900 57200 41900 4
N 57200 41900 57200 42300 4
N 57200 42300 57300 42300 4
C 60300 41700 1 0 0 gnd-1.sym
N 60100 42300 60400 42300 4
N 60400 42300 60400 42000 4
N 60900 43200 60100 43200 4
{
T 60200 43200 5 10 1 1 0 0 1
netname=PB1_5V
}
N 60900 43800 60100 43800 4
{
T 60200 43800 5 10 1 1 0 0 1
netname=PB3_5V
}
N 60900 42900 60100 42900 4
{
T 60200 42900 5 10 1 1 0 0 1
netname=PB0_5V
}
N 60900 43500 60100 43500 4
{
T 60200 43500 5 10 1 1 0 0 1
netname=PB2_5V
}
C 45600 40000 1 0 0 txs0108e-1.sym
{
T 46600 44600 5 10 1 1 0 0 1
device=TXS0108
T 46500 40400 5 10 1 1 0 0 1
footprint=TSSOP20
T 46900 44900 5 10 1 1 0 0 1
refdes=U3
}
N 47300 48600 47300 47900 4
C 46500 48600 1 90 0 resistor-1.sym
{
T 46100 48900 5 10 0 0 90 0 1
device=RESISTOR
T 46200 48800 5 10 1 1 90 0 1
refdes=R2
T 46700 48600 5 10 1 1 90 0 1
value=4.7k
T 46700 49100 5 10 1 1 90 0 1
footprint=0805
}
C 42600 48000 1 0 0 gnd-1.sym
N 42700 48500 42700 48300 4
C 42900 48500 1 90 0 capacitor-1.sym
{
T 42200 48700 5 10 0 0 90 0 1
device=CAPACITOR
T 42000 48700 5 10 0 0 90 0 1
symversion=0.1
T 43000 49100 5 10 1 1 0 0 1
refdes=C5
T 43000 48900 5 10 1 1 0 0 1
value=100NF
T 43000 48700 5 10 1 1 0 0 1
footprint=0805
}
C 47300 50600 1 0 0 gnd-1.sym
N 47400 51100 47400 50900 4
C 47600 51100 1 90 0 capacitor-1.sym
{
T 46900 51300 5 10 0 0 90 0 1
device=CAPACITOR
T 46700 51300 5 10 0 0 90 0 1
symversion=0.1
T 47700 51700 5 10 1 1 0 0 1
refdes=C4
T 47700 51500 5 10 1 1 0 0 1
value=100NF
T 47700 51300 5 10 1 1 0 0 1
footprint=0805
}
C 50200 45400 1 0 0 gnd-1.sym
N 50300 45900 50300 45700 4
C 50500 45900 1 90 0 capacitor-1.sym
{
T 49800 46100 5 10 0 0 90 0 1
device=CAPACITOR
T 49600 46100 5 10 0 0 90 0 1
symversion=0.1
T 50600 46500 5 10 1 1 0 0 1
refdes=C3
T 50600 46300 5 10 1 1 0 0 1
value=100NF
T 50600 46100 5 10 1 1 0 0 1
footprint=0805
}
C 42500 49400 1 0 0 5V-plus-1.sym
C 50100 46800 1 0 0 5V-plus-1.sym
C 48500 48300 1 0 0 gnd-1.sym
N 48600 48800 48600 48600 4
C 48800 48800 1 90 0 capacitor-1.sym
{
T 48100 49000 5 10 0 0 90 0 1
device=CAPACITOR
T 47900 49000 5 10 0 0 90 0 1
symversion=0.1
T 48900 49400 5 10 1 1 0 0 1
refdes=C6
T 48900 49200 5 10 1 1 0 0 1
value=100NF
T 48900 49000 5 10 1 1 0 0 1
footprint=0805
}
N 57300 44400 56500 44400 4
{
T 56600 44400 5 10 1 1 0 0 1
netname=DATA1
}
N 57300 45000 56500 45000 4
{
T 56600 45000 5 10 1 1 0 0 1
netname=DATA3
}
N 57300 44100 56500 44100 4
{
T 56600 44100 5 10 1 1 0 0 1
netname=DATA0
}
N 57300 44700 56500 44700 4
{
T 56600 44700 5 10 1 1 0 0 1
netname=DATA2
}
N 60900 45000 60100 45000 4
{
T 60200 45000 5 10 1 1 0 0 1
netname=D3_5V
}
N 60900 44700 60100 44700 4
{
T 60200 44700 5 10 1 1 0 0 1
netname=D2_5V
}
N 60900 44400 60100 44400 4
{
T 60200 44400 5 10 1 1 0 0 1
netname=D1_5V
}
N 60900 44100 60100 44100 4
{
T 60200 44100 5 10 1 1 0 0 1
netname=D0_5V
}
N 52400 43200 51600 43200 4
{
T 51700 43200 5 10 1 1 0 0 1
netname=DATA5
}
N 52400 43800 51600 43800 4
{
T 51700 43800 5 10 1 1 0 0 1
netname=DATA7
}
N 52400 42900 51600 42900 4
{
T 51700 42900 5 10 1 1 0 0 1
netname=DATA4
}
N 52400 43500 51600 43500 4
{
T 51700 43500 5 10 1 1 0 0 1
netname=DATA6
}
N 52400 45000 51600 45000 4
{
T 51700 45000 5 10 1 1 0 0 1
netname=PD7
}
N 52400 44400 51600 44400 4
{
T 51700 44400 5 10 1 1 0 0 1
netname=PG1
}
N 52400 44700 51600 44700 4
{
T 51700 44700 5 10 1 1 0 0 1
netname=PG2
}
N 52400 44100 51600 44100 4
{
T 51700 44100 5 10 1 1 0 0 1
netname=PG0
}
N 56000 43200 55200 43200 4
{
T 55300 43200 5 10 1 1 0 0 1
netname=D5_5V
}
N 56000 43800 55200 43800 4
{
T 55300 43800 5 10 1 1 0 0 1
netname=D7_5V
}
N 56000 42900 55200 42900 4
{
T 55300 42900 5 10 1 1 0 0 1
netname=D4_5V
}
N 56000 43500 55200 43500 4
{
T 55300 43500 5 10 1 1 0 0 1
netname=D6_5V
}
N 56000 45000 55200 45000 4
{
T 55300 45000 5 10 1 1 0 0 1
netname=PD7_5V
}
N 56000 44400 55200 44400 4
{
T 55300 44400 5 10 1 1 0 0 1
netname=PG1_5V
}
N 56000 44700 55200 44700 4
{
T 55300 44700 5 10 1 1 0 0 1
netname=PG2_5V
}
N 56000 44100 55200 44100 4
{
T 55300 44100 5 10 1 1 0 0 1
netname=PG0_5V
}
C 47200 52000 1 0 0 3.3V-plus-1.sym
C 48400 49700 1 0 0 3.3V-plus-1.sym
