v 20130925 2
C 40000 40000 0 0 0 title-B.sym
C 42700 43000 1 0 0 megahdr2x18-1.sym
{
T 43400 49300 5 10 1 1 0 0 1
device=MEGAHDR2X18
T 43400 49100 5 10 1 1 0 0 1
footprint=HEADER36_1
T 43400 49500 5 10 1 1 0 0 1
refdes=J1
}
C 42200 48800 1 0 0 5V-plus-1.sym
C 45300 48800 1 0 0 5V-plus-1.sym
C 52600 50500 1 0 0 5V-plus-1.sym
C 42300 42800 1 0 0 gnd-1.sym
C 45400 42800 1 0 0 gnd-1.sym
C 52500 41500 1 0 0 gnd-1.sym
N 52800 50300 52800 50500 4
N 52600 41900 52600 41800 4
N 45200 43400 45500 43400 4
N 45500 43400 45500 43100 4
N 42400 43100 42400 43400 4
N 42400 43400 42700 43400 4
N 42400 48800 42400 48500 4
N 42400 48500 42700 48500 4
N 45200 48500 45500 48500 4
N 45500 48500 45500 48800 4
C 45900 40900 1 90 0 capacitor-1.sym
{
T 45200 41100 5 10 0 0 90 0 1
device=CAPACITOR
T 46000 41500 5 10 1 1 0 0 1
refdes=C1
T 45000 41100 5 10 0 0 90 0 1
symversion=0.1
T 46000 41300 5 10 1 1 0 0 1
value=100NF
T 46000 41100 5 10 1 1 0 0 1
footprint=0805
}
C 48500 40900 1 90 0 capacitor-1.sym
{
T 47800 41100 5 10 0 0 90 0 1
device=CAPACITOR
T 48600 41500 5 10 1 1 0 0 1
refdes=C3
T 47600 41100 5 10 0 0 90 0 1
symversion=0.1
T 48600 41300 5 10 1 1 0 0 1
value=100NF
T 48600 41100 5 10 1 1 0 0 1
footprint=0805
}
C 45500 42000 1 0 0 5V-plus-1.sym
C 45600 40400 1 0 0 gnd-1.sym
C 48200 40400 1 0 0 gnd-1.sym
N 45700 40900 45700 40700 4
N 48300 40900 48300 40700 4
N 45700 42000 45700 41800 4
N 48300 41800 48300 41900 4
N 48300 41900 45700 41900 4
U 41100 49000 41100 47400 10 1
N 42700 48200 41300 48200 4
{
T 41500 48200 5 10 1 1 0 0 1
netname=MA0
}
C 41300 48200 1 90 0 busripper-1.sym
{
T 40900 48200 5 8 0 0 90 0 1
device=none
}
N 42700 47900 41300 47900 4
{
T 41500 47900 5 10 1 1 0 0 1
netname=MA2
}
C 41300 47900 1 90 0 busripper-1.sym
{
T 40900 47900 5 8 0 0 90 0 1
device=none
}
N 42700 47600 41300 47600 4
{
T 41500 47600 5 10 1 1 0 0 1
netname=MA4
}
C 41300 47600 1 90 0 busripper-1.sym
{
T 40900 47600 5 8 0 0 90 0 1
device=none
}
N 42700 47300 41300 47300 4
{
T 41500 47300 5 10 1 1 0 0 1
netname=MA6
}
C 41300 47300 1 90 0 busripper-1.sym
{
T 40900 47300 5 8 0 0 90 0 1
device=none
}
U 41100 49000 40600 49000 10 0
{
T 40600 49100 5 10 1 1 0 0 1
netname=MA
}
U 46500 47400 46500 49000 10 1
U 46500 49000 47000 49000 10 0
{
T 46700 49100 5 10 1 1 0 0 1
netname=MA
}
N 45200 47300 46300 47300 4
{
T 45800 47300 5 10 1 1 0 0 1
netname=MA7
}
C 46300 47300 1 0 0 busripper-1.sym
{
T 46300 47700 5 8 0 0 0 0 1
device=none
}
N 45200 47600 46300 47600 4
{
T 45800 47600 5 10 1 1 0 0 1
netname=MA5
}
C 46300 47600 1 0 0 busripper-1.sym
{
T 46300 48000 5 8 0 0 0 0 1
device=none
}
N 45200 47900 46300 47900 4
{
T 45800 47900 5 10 1 1 0 0 1
netname=MA3
}
C 46300 47900 1 0 0 busripper-1.sym
{
T 46300 48300 5 8 0 0 0 0 1
device=none
}
N 45200 48200 46300 48200 4
{
T 45800 48200 5 10 1 1 0 0 1
netname=MA1
}
C 46300 48200 1 0 0 busripper-1.sym
{
T 46300 48600 5 8 0 0 0 0 1
device=none
}
N 42700 45500 41500 45500 4
{
T 41700 45500 5 10 1 1 0 0 1
netname=SC1
}
N 46300 45500 45200 45500 4
{
T 45500 45500 5 10 1 1 0 0 1
netname=Q
}
N 42700 45800 41500 45800 4
{
T 41700 45800 5 10 1 1 0 0 1
netname=\_CLEAR\_
}
N 42700 44000 41500 44000 4
{
T 41700 44000 5 10 1 1 0 0 1
netname=\_INT\_
}
N 51000 49400 49800 49400 4
{
T 49800 49400 5 10 1 1 0 0 1
netname=CLK
}
N 51000 47000 49800 47000 4
{
T 49800 47000 5 10 1 1 0 0 1
netname=\_INT\_
}
C 40700 43600 1 0 0 resistor-1.sym
{
T 41000 44000 5 10 0 0 0 0 1
device=RESISTOR
T 40800 43400 5 10 1 1 0 0 1
refdes=R1
T 41300 43400 5 10 1 1 0 0 1
value=33
T 41100 43200 5 10 0 1 0 0 1
footprint=0805
}
N 41600 43700 42700 43700 4
{
T 41700 43700 5 10 1 1 0 0 1
netname=CLK_R
}
N 40300 43700 40700 43700 4
{
T 40300 43700 5 10 1 1 0 0 1
netname=CLK
}
T 50100 40700 9 16 1 0 0 0 1
1802 RETRO SHIELD FOR ARDUINO MEGA
T 49500 41000 9 10 1 0 0 0 2
Released under the Creative Commons Attribution Share-Alike 4.0 License
https://creativecommons.org/licenses/by-sa/4.0/
T 54000 40100 9 10 1 0 0 0 1
ERTURK KOCALAR
T 54000 40400 9 10 1 0 0 0 1
REV B - 2019/08/12
T 50900 40100 9 10 1 0 0 0 1
1
T 51600 40100 9 10 1 0 0 0 1
1
T 50800 40400 9 10 1 0 0 0 1
K1802.SCH
C 48500 49500 1 90 1 led-1.sym
{
T 47900 48700 5 10 0 0 270 2 1
device=LED
T 49100 49200 5 10 1 1 0 6 1
refdes=LED1
T 47700 48700 5 10 0 0 270 2 1
symversion=0.1
T 48500 49500 5 10 0 0 0 6 1
footprint=LED3
}
N 49800 48500 51000 48500 4
{
T 50200 48500 5 10 1 1 0 0 1
netname=SC1
}
T 48600 49000 9 10 1 0 0 0 1
RED
U 55900 47300 55900 50200 10 1
U 55900 50200 56400 50200 10 0
{
T 55900 50300 5 10 1 1 0 0 1
netname=MA
}
C 55700 48500 1 0 0 busripper-1.sym
{
T 55700 48900 5 8 0 0 0 0 1
device=none
}
C 55700 48800 1 0 0 busripper-1.sym
{
T 55700 49200 5 8 0 0 0 0 1
device=none
}
C 55700 49100 1 0 0 busripper-1.sym
{
T 55700 49500 5 8 0 0 0 0 1
device=none
}
C 55700 49400 1 0 0 busripper-1.sym
{
T 55700 49800 5 8 0 0 0 0 1
device=none
}
C 55700 47600 1 0 0 busripper-1.sym
{
T 55700 48000 5 8 0 0 0 0 1
device=none
}
C 55700 47900 1 0 0 busripper-1.sym
{
T 55700 48300 5 8 0 0 0 0 1
device=none
}
C 55700 48200 1 0 0 busripper-1.sym
{
T 55700 48600 5 8 0 0 0 0 1
device=none
}
C 55700 47300 1 0 0 busripper-1.sym
{
T 55700 47700 5 8 0 0 0 0 1
device=none
}
C 49500 49700 1 0 0 gnd-1.sym
C 50700 50300 1 180 0 capacitor-1.sym
{
T 50100 50700 5 10 1 1 0 0 1
refdes=C4
T 50100 50500 5 10 1 1 0 0 1
value=22PF
T 50100 50300 5 10 1 1 0 0 1
footprint=0805
T 50500 49600 5 10 0 0 180 0 1
device=CAPACITOR
T 50500 49400 5 10 0 0 180 0 1
symversion=0.1
}
N 49600 50000 49600 50100 4
N 49600 50100 49800 50100 4
N 50700 50100 50900 50100 4
N 50900 50100 50900 49400 4
G 44100 40753 900 947 0 0 0
./symbols/osha-logo.svg
N 52500 50300 52500 50400 4
N 52500 50400 52800 50400 4
N 54300 47300 55700 47300 4
{
T 55200 47300 5 10 1 1 0 0 1
netname=MA0
}
N 54300 47600 55700 47600 4
{
T 55200 47600 5 10 1 1 0 0 1
netname=MA1
}
N 54300 47900 55700 47900 4
{
T 55200 47900 5 10 1 1 0 0 1
netname=MA2
}
N 54300 48200 55700 48200 4
{
T 55200 48200 5 10 1 1 0 0 1
netname=MA3
}
N 54300 48500 55700 48500 4
{
T 55200 48500 5 10 1 1 0 0 1
netname=MA4
}
N 54300 48800 55700 48800 4
{
T 55200 48800 5 10 1 1 0 0 1
netname=MA5
}
N 54300 49100 55700 49100 4
{
T 55200 49100 5 10 1 1 0 0 1
netname=MA6
}
N 54300 49400 55700 49400 4
{
T 55200 49400 5 10 1 1 0 0 1
netname=MA7
}
N 55500 46100 54300 46100 4
{
T 54600 46100 5 10 1 1 0 0 1
netname=\_MRD\_
}
N 55500 45800 54300 45800 4
{
T 54600 45800 5 10 1 1 0 0 1
netname=\_MWR\_
}
U 55900 43100 55900 46000 10 1
U 55900 46000 56400 46000 10 0
{
T 55900 46100 5 10 1 1 0 0 1
netname=BUS
}
C 55700 44300 1 0 0 busripper-1.sym
{
T 55700 44700 5 8 0 0 0 0 1
device=none
}
C 55700 44600 1 0 0 busripper-1.sym
{
T 55700 45000 5 8 0 0 0 0 1
device=none
}
C 55700 44900 1 0 0 busripper-1.sym
{
T 55700 45300 5 8 0 0 0 0 1
device=none
}
C 55700 45200 1 0 0 busripper-1.sym
{
T 55700 45600 5 8 0 0 0 0 1
device=none
}
C 55700 43400 1 0 0 busripper-1.sym
{
T 55700 43800 5 8 0 0 0 0 1
device=none
}
C 55700 43700 1 0 0 busripper-1.sym
{
T 55700 44100 5 8 0 0 0 0 1
device=none
}
C 55700 44000 1 0 0 busripper-1.sym
{
T 55700 44400 5 8 0 0 0 0 1
device=none
}
C 55700 43100 1 0 0 busripper-1.sym
{
T 55700 43500 5 8 0 0 0 0 1
device=none
}
N 54300 43100 55700 43100 4
{
T 55200 43100 5 10 1 1 0 0 1
netname=BUS0
}
N 54300 43400 55700 43400 4
{
T 55200 43400 5 10 1 1 0 0 1
netname=BUS1
}
N 54300 43700 55700 43700 4
{
T 55200 43700 5 10 1 1 0 0 1
netname=BUS2
}
N 54300 44000 55700 44000 4
{
T 55200 44000 5 10 1 1 0 0 1
netname=BUS3
}
N 54300 44300 55700 44300 4
{
T 55200 44300 5 10 1 1 0 0 1
netname=BUS4
}
N 54300 44600 55700 44600 4
{
T 55200 44600 5 10 1 1 0 0 1
netname=BUS5
}
N 54300 44900 55700 44900 4
{
T 55200 44900 5 10 1 1 0 0 1
netname=BUS6
}
N 54300 45200 55700 45200 4
{
T 55200 45200 5 10 1 1 0 0 1
netname=BUS7
}
N 55500 47000 54300 47000 4
{
T 54600 47000 5 10 1 1 0 0 1
netname=TPA
}
N 55100 46700 54300 46700 4
{
T 54600 46700 5 10 1 1 0 0 1
netname=TPB
}
C 48900 48400 1 0 0 resistor-1.sym
{
T 49200 48800 5 10 0 0 0 0 1
device=RESISTOR
T 49000 48700 5 10 1 1 0 0 1
refdes=R2
T 49400 48700 5 10 1 1 0 0 1
value=680
T 49100 48200 5 10 0 1 0 0 1
footprint=0805
}
N 48300 48500 48900 48500 4
{
T 48600 48500 5 10 0 0 0 0 1
netname=SYNC_LED
}
N 48300 48600 48300 48500 4
{
T 48600 48600 5 10 0 0 0 0 1
netname=SYNC_LED
}
N 48300 49600 48300 49500 4
C 48100 49600 1 0 0 5V-plus-1.sym
T 46900 42700 9 10 1 0 0 0 2
\_EF1\_ and \_EF2\_ can be wired
to other Arduino GPIO's.
N 51000 42800 49800 42800 4
{
T 49800 42800 5 10 1 1 0 0 1
netname=Q
}
N 51000 43400 49800 43400 4
{
T 49800 43400 5 10 1 1 0 0 1
netname=N2
}
N 51000 43700 49800 43700 4
{
T 49800 43700 5 10 1 1 0 0 1
netname=N1
}
N 51000 44000 49800 44000 4
{
T 49800 44000 5 10 1 1 0 0 1
netname=N0
}
N 51000 44900 49800 44900 4
{
T 49800 44900 5 10 1 1 0 0 1
netname=\_EF3\_
}
N 49400 45200 51000 45200 4
{
T 49800 45200 5 10 1 1 0 0 1
netname=\_EF2\_
}
N 49400 45500 51000 45500 4
{
T 49800 45500 5 10 1 1 0 0 1
netname=\_EF1\_
}
N 51000 44600 49800 44600 4
{
T 49800 44600 5 10 1 1 0 0 1
netname=\_EF4\_
}
N 51000 46100 49800 46100 4
{
T 49800 46100 5 10 1 1 0 0 1
netname=\_CLEAR\_
}
N 49100 46400 51000 46400 4
{
T 49800 46400 5 10 1 1 0 0 1
netname=\_WAIT\_
}
N 49800 47300 51000 47300 4
{
T 49800 47300 5 10 1 1 0 0 1
netname=\_DMA_OUT\_
}
C 51000 41900 1 0 0 cdp1802ace-1.sym
{
T 52400 47000 5 10 1 1 0 0 1
device=CDP1802
T 52400 46800 5 10 1 1 0 0 1
footprint=DIP40
T 52400 47200 5 10 1 1 0 0 1
refdes=U1
}
N 51000 47600 49800 47600 4
{
T 49800 47600 5 10 1 1 0 0 1
netname=\_DMA_IN\_
}
N 42700 47000 41500 47000 4
{
T 41700 47000 5 10 1 1 0 0 1
netname=\_EF4\_
}
N 42700 46700 41500 46700 4
{
T 41700 46700 5 10 1 1 0 0 1
netname=\_MRD\_
}
N 42700 46400 41500 46400 4
{
T 41700 46400 5 10 1 1 0 0 1
netname=TPA
}
N 42700 46100 41500 46100 4
{
T 41700 46100 5 10 1 1 0 0 1
netname=N1
}
N 45200 47000 46300 47000 4
{
T 45500 47000 5 10 1 1 0 0 1
netname=\_EF3\_
}
N 45200 46700 46300 46700 4
{
T 45500 46700 5 10 1 1 0 0 1
netname=\_MWR\_
}
N 45200 46400 46300 46400 4
{
T 45500 46400 5 10 1 1 0 0 1
netname=N2
}
N 45200 46100 46300 46100 4
{
T 45500 46100 5 10 1 1 0 0 1
netname=N0
}
U 41100 45500 40500 45500 10 0
{
T 40500 45600 5 10 1 1 0 0 1
netname=BUS
}
U 41100 45500 41100 44400 10 1
C 41300 45200 1 90 0 busripper-1.sym
{
T 40900 45200 5 8 0 0 90 0 1
device=none
}
C 41300 44900 1 90 0 busripper-1.sym
{
T 40900 44900 5 8 0 0 90 0 1
device=none
}
C 41300 44600 1 90 0 busripper-1.sym
{
T 40900 44600 5 8 0 0 90 0 1
device=none
}
C 41300 44300 1 90 0 busripper-1.sym
{
T 40900 44300 5 8 0 0 90 0 1
device=none
}
N 42700 44300 41300 44300 4
{
T 41500 44300 5 10 1 1 0 0 1
netname=BUS1
}
N 42700 44600 41300 44600 4
{
T 41500 44600 5 10 1 1 0 0 1
netname=BUS3
}
N 42700 44900 41300 44900 4
{
T 41500 44900 5 10 1 1 0 0 1
netname=BUS5
}
N 42700 45200 41300 45200 4
{
T 41500 45200 5 10 1 1 0 0 1
netname=BUS7
}
U 46600 45500 47100 45500 10 0
{
T 46700 45600 5 10 1 1 0 0 1
netname=BUS
}
C 46400 45200 1 0 0 busripper-1.sym
{
T 46400 45600 5 8 0 0 0 0 1
device=none
}
U 46600 44400 46600 45500 10 1
C 46400 44900 1 0 0 busripper-1.sym
{
T 46400 45300 5 8 0 0 0 0 1
device=none
}
C 46400 44600 1 0 0 busripper-1.sym
{
T 46400 45000 5 8 0 0 0 0 1
device=none
}
C 46400 44300 1 0 0 busripper-1.sym
{
T 46400 44700 5 8 0 0 0 0 1
device=none
}
N 45200 44300 46400 44300 4
{
T 45800 44300 5 10 1 1 0 0 1
netname=BUS0
}
N 45200 44600 46400 44600 4
{
T 45800 44600 5 10 1 1 0 0 1
netname=BUS2
}
N 45200 44900 46400 44900 4
{
T 45800 44900 5 10 1 1 0 0 1
netname=BUS4
}
N 45200 45200 46400 45200 4
{
T 45800 45200 5 10 1 1 0 0 1
netname=BUS6
}
N 45200 45800 46300 45800 4
{
T 45500 45800 5 10 1 1 0 0 1
netname=TPB_SC0
}
N 46300 43700 45200 43700 4
{
T 45500 43700 5 10 1 1 0 0 1
netname=\_DMA_OUT\_
}
N 46300 44000 45200 44000 4
{
T 45500 44000 5 10 1 1 0 0 1
netname=\_DMA_IN\_
}
C 47800 46700 1 0 0 5V-plus-1.sym
N 49800 48200 51000 48200 4
{
T 50200 48200 5 10 1 1 0 0 1
netname=SC0
}
C 48200 46300 1 0 0 resistor-1.sym
{
T 48500 46700 5 10 0 0 0 0 1
device=RESISTOR
T 48300 46100 5 10 1 1 0 0 1
refdes=R3
T 48700 46100 5 10 1 1 0 0 1
value=680
T 48700 45900 5 10 0 1 0 0 1
footprint=0805
}
C 48200 45600 1 0 0 resistor-1.sym
{
T 48500 46000 5 10 0 0 0 0 1
device=RESISTOR
T 48300 45400 5 10 1 1 0 0 1
refdes=R4
T 48700 45400 5 10 1 1 0 0 1
value=680
T 48700 45200 5 10 0 1 0 0 1
footprint=0805
}
C 48200 44900 1 0 0 resistor-1.sym
{
T 48500 45300 5 10 0 0 0 0 1
device=RESISTOR
T 48300 44700 5 10 1 1 0 0 1
refdes=R5
T 48700 44700 5 10 1 1 0 0 1
value=680
T 48700 44500 5 10 0 1 0 0 1
footprint=0805
}
N 48000 46700 48000 45000 4
N 48000 45000 48200 45000 4
N 48200 45700 48000 45700 4
N 48200 46400 48000 46400 4
N 49100 45700 49400 45700 4
N 49400 45700 49400 45500 4
N 49100 45000 49400 45000 4
N 49400 45000 49400 45200 4
C 48800 42200 1 0 0 resistor-1.sym
{
T 49100 42600 5 10 0 0 0 0 1
device=RESISTOR
T 48900 42000 5 10 1 1 0 0 1
refdes=R6
T 49300 42000 5 10 1 1 0 0 1
value=680
T 49300 41800 5 10 0 1 0 0 1
footprint=0805
}
C 48500 41900 1 0 0 gnd-1.sym
T 50500 41800 9 10 1 0 180 0 1
RED
C 47200 40900 1 90 0 capacitor-1.sym
{
T 46500 41100 5 10 0 0 90 0 1
device=CAPACITOR
T 47300 41500 5 10 1 1 0 0 1
refdes=C2
T 46300 41100 5 10 0 0 90 0 1
symversion=0.1
T 47300 41300 5 10 1 1 0 0 1
value=100NF
T 47300 41100 5 10 1 1 0 0 1
footprint=0805
}
N 47000 40900 47000 40700 4
C 46900 40400 1 0 0 gnd-1.sym
N 47000 41800 47000 41900 4
T 47300 40800 9 10 1 0 0 0 1
VCC
T 48600 40800 9 10 1 0 0 0 1
VDD
T 46000 40800 9 10 1 0 0 0 1
HDR
T 40300 41400 9 10 1 0 0 0 3
NOTE:
1) All resistors 0805.
2) NOSTUFF means do not use part.
T 40300 40300 9 10 1 0 0 0 4
CHANGES:
Rev A - Initial release. Bring-up ok.
Rev B - Connect Q instead of SC0.
            option btwn TPB & SC0.
C 48900 48100 1 0 0 resistor-1.sym
{
T 49200 48500 5 10 0 0 0 0 1
device=RESISTOR
T 49000 47900 5 10 1 1 0 0 1
refdes=R7
T 49500 47900 5 10 1 1 0 0 1
value=NOSTUFF
T 49300 47700 5 10 0 1 0 0 1
footprint=0805
}
C 50800 42100 1 0 1 led-1.sym
{
T 50000 42700 5 10 0 0 180 2 1
device=LED
T 50600 41900 5 10 1 1 0 6 1
refdes=LED2
T 50000 42900 5 10 0 0 180 2 1
symversion=0.1
T 50800 42100 5 10 0 0 270 6 1
footprint=LED3
}
N 48600 42200 48600 42300 4
N 48600 42300 48800 42300 4
N 49700 42300 49900 42300 4
N 50800 42300 50900 42300 4
N 48900 48200 48100 48200 4
{
T 48100 48200 5 10 1 1 0 0 1
netname=TPB_SC0
}
T 46900 43300 9 10 1 0 0 0 4
Arduino can generate TPB
internally. If needed, TPB
can be swapped w/ SC0
using R7 and R8.
B 46800 42600 2600 1600 3 2 0 2 100 100 0 -1 -1 -1 -1 -1
C 55100 46600 1 0 0 resistor-1.sym
{
T 55400 47000 5 10 0 0 0 0 1
device=RESISTOR
T 55200 46400 5 10 1 1 0 0 1
refdes=R8
T 55700 46400 5 10 1 1 0 0 1
value=SHORT
T 55500 46200 5 10 0 1 0 0 1
footprint=0805
}
N 56000 46700 56900 46700 4
{
T 56100 46700 5 10 1 1 0 0 1
netname=TPB_SC0
}
N 50900 42300 50900 42800 4
