v 20130925 2
C 40000 40000 0 0 0 title-B.sym
C 42900 43000 1 0 0 megahdr2x18-1.sym
{
T 43600 49300 5 10 1 1 0 0 1
device=MEGAHDR2X18
T 43600 49100 5 10 1 1 0 0 1
footprint=HEADER36_1
T 43600 49500 5 10 1 1 0 0 1
refdes=J1
}
C 42400 48800 1 0 0 5V-plus-1.sym
C 45500 48800 1 0 0 5V-plus-1.sym
C 52900 50400 1 0 0 5V-plus-1.sym
C 42500 42800 1 0 0 gnd-1.sym
C 45600 42800 1 0 0 gnd-1.sym
C 53000 41500 1 0 0 gnd-1.sym
N 53100 50300 53100 50400 4
N 53100 41900 53100 41800 4
N 45400 43400 45700 43400 4
N 45700 43400 45700 43100 4
N 42600 43100 42600 43400 4
N 42600 43400 42900 43400 4
N 42600 48800 42600 48500 4
N 42600 48500 42900 48500 4
N 45400 48500 45700 48500 4
N 45700 48500 45700 48800 4
C 47400 40800 1 90 0 capacitor-1.sym
{
T 46700 41000 5 10 0 0 90 0 1
device=CAPACITOR
T 47500 41400 5 10 1 1 0 0 1
refdes=C1
T 46500 41000 5 10 0 0 90 0 1
symversion=0.1
T 47500 41200 5 10 1 1 0 0 1
value=100NF
T 47500 41000 5 10 1 1 0 0 1
footprint=0805
}
C 48500 40800 1 90 0 capacitor-1.sym
{
T 47800 41000 5 10 0 0 90 0 1
device=CAPACITOR
T 48600 41400 5 10 1 1 0 0 1
refdes=C2
T 47600 41000 5 10 0 0 90 0 1
symversion=0.1
T 48600 41200 5 10 1 1 0 0 1
value=100NF
T 48600 41000 5 10 1 1 0 0 1
footprint=0805
}
C 47000 41900 1 0 0 5V-plus-1.sym
C 47100 40300 1 0 0 gnd-1.sym
C 48200 40300 1 0 0 gnd-1.sym
N 47200 40800 47200 40600 4
N 48300 40800 48300 40600 4
N 47200 41900 47200 41700 4
N 48300 41700 48300 41800 4
N 48300 41800 47200 41800 4
N 42900 48200 41500 48200 4
{
T 41700 48200 5 10 1 1 0 0 1
netname=TRAP
}
N 42900 47900 41500 47900 4
{
T 41700 47900 5 10 1 1 0 0 1
netname=RST7.5
}
N 42900 47600 41500 47600 4
{
T 41700 47600 5 10 1 1 0 0 1
netname=RST6.5
}
N 42900 47300 41500 47300 4
{
T 41700 47300 5 10 1 1 0 0 1
netname=RST5.5
}
N 45400 47300 46600 47300 4
{
T 45900 47300 5 10 1 1 0 0 1
netname=S1
}
N 45400 47600 46600 47600 4
{
T 45900 47600 5 10 1 1 0 0 1
netname=S0
}
N 45400 47900 46600 47900 4
{
T 45900 47900 5 10 1 1 0 0 1
netname=IO/\_M\_
}
N 45400 48200 46600 48200 4
{
T 45900 48200 5 10 1 1 0 0 1
netname=\_RESET_IN\_
}
N 42900 46100 41500 46100 4
{
T 41600 46100 5 10 1 1 0 0 1
netname=A9
}
C 41500 46100 1 90 0 busripper-1.sym
{
T 41100 46100 5 8 0 0 90 0 1
device=none
}
N 42900 46400 41500 46400 4
{
T 41600 46400 5 10 1 1 0 0 1
netname=A11
}
C 41500 46400 1 90 0 busripper-1.sym
{
T 41100 46400 5 8 0 0 90 0 1
device=none
}
N 42900 46700 41500 46700 4
{
T 41600 46700 5 10 1 1 0 0 1
netname=A13
}
C 41500 46700 1 90 0 busripper-1.sym
{
T 41100 46700 5 8 0 0 90 0 1
device=none
}
N 42900 47000 41500 47000 4
{
T 41600 47000 5 10 1 1 0 0 1
netname=A15
}
C 41500 47000 1 90 0 busripper-1.sym
{
T 41100 47000 5 8 0 0 90 0 1
device=none
}
N 45400 46100 46800 46100 4
{
T 46200 46100 5 10 1 1 0 0 1
netname=A8
}
C 46800 46100 1 0 0 busripper-1.sym
{
T 46800 46500 5 8 0 0 0 0 1
device=none
}
N 45400 46400 46800 46400 4
{
T 46200 46400 5 10 1 1 0 0 1
netname=A10
}
C 46800 46400 1 0 0 busripper-1.sym
{
T 46800 46800 5 8 0 0 0 0 1
device=none
}
N 45400 46700 46800 46700 4
{
T 46200 46700 5 10 1 1 0 0 1
netname=A12
}
C 46800 46700 1 0 0 busripper-1.sym
{
T 46800 47100 5 8 0 0 0 0 1
device=none
}
N 45400 47000 46800 47000 4
{
T 46200 47000 5 10 1 1 0 0 1
netname=A14
}
C 46800 47000 1 0 0 busripper-1.sym
{
T 46800 47400 5 8 0 0 0 0 1
device=none
}
N 42900 45500 41700 45500 4
{
T 41800 45500 5 10 1 1 0 0 1
netname=INTR
}
N 46600 45800 45400 45800 4
{
T 46100 45800 5 10 1 1 0 0 1
netname=\_RD\_
}
N 46600 45500 45400 45500 4
{
T 46100 45500 5 10 1 1 0 0 1
netname=\_WR\_
}
N 42900 45800 41700 45800 4
{
T 41800 45800 5 10 1 1 0 0 1
netname=ALE
}
N 42900 44000 41700 44000 4
{
T 41800 44000 5 10 1 1 0 0 1
netname=\_INTA\_
}
N 46500 44000 45400 44000 4
{
T 46000 44000 5 10 1 1 0 0 1
netname=SOD
}
N 51400 49100 50200 49100 4
{
T 50200 49100 5 10 1 1 0 0 1
netname=CLK
}
N 45400 43700 46500 43700 4
{
T 46000 43700 5 10 1 1 0 0 1
netname=SID
}
C 40900 43600 1 0 0 resistor-1.sym
{
T 41200 44000 5 10 0 0 0 0 1
device=RESISTOR
T 41000 43400 5 10 1 1 0 0 1
refdes=R1
T 41000 43200 5 10 1 1 0 0 1
value=33
T 41300 43200 5 10 1 1 0 0 1
footprint=0805
}
N 41800 43700 42900 43700 4
{
T 41900 43700 5 10 1 1 0 0 1
netname=CLK_R
}
N 40200 43700 40900 43700 4
{
T 40200 43700 5 10 1 1 0 0 1
netname=CLK
}
T 50100 40700 9 16 1 0 0 0 1
8085A RETRO SHIELD FOR ARDUINO MEGA
T 49500 41000 9 10 1 0 0 0 2
Released under the Creative Commons Attribution Share-Alike 4.0 License
https://creativecommons.org/licenses/by-sa/4.0/
T 54000 40100 9 10 1 0 0 0 1
ERTURK KOCALAR
T 54000 40400 9 10 1 0 0 0 1
REV A - 2019/06/24
T 50900 40100 9 10 1 0 0 0 1
1
T 51600 40100 9 10 1 0 0 0 1
1
T 50800 40400 9 10 1 0 0 0 1
K8085A.SCH
C 49000 48100 1 90 1 led-1.sym
{
T 48400 47300 5 10 0 0 270 2 1
device=LED
T 49600 47700 5 10 1 1 0 6 1
refdes=LED1
T 48200 47300 5 10 0 0 270 2 1
symversion=0.1
T 49000 48100 5 10 0 0 0 6 1
footprint=LED3
}
N 50100 48200 51400 48200 4
{
T 50300 48200 5 10 0 0 0 0 1
netname=SYNC_R
}
T 49200 47500 9 10 1 0 0 0 1
RED
U 56300 47300 56300 49700 10 1
U 56300 49700 56800 49700 10 0
{
T 56600 49800 5 10 1 1 0 0 1
netname=A
}
C 56100 48500 1 0 0 busripper-1.sym
{
T 56100 48900 5 8 0 0 0 0 1
device=none
}
C 56100 48800 1 0 0 busripper-1.sym
{
T 56100 49200 5 8 0 0 0 0 1
device=none
}
C 56100 49100 1 0 0 busripper-1.sym
{
T 56100 49500 5 8 0 0 0 0 1
device=none
}
C 56100 49400 1 0 0 busripper-1.sym
{
T 56100 49800 5 8 0 0 0 0 1
device=none
}
C 56100 47600 1 0 0 busripper-1.sym
{
T 56100 48000 5 8 0 0 0 0 1
device=none
}
C 56100 47900 1 0 0 busripper-1.sym
{
T 56100 48300 5 8 0 0 0 0 1
device=none
}
C 56100 48200 1 0 0 busripper-1.sym
{
T 56100 48600 5 8 0 0 0 0 1
device=none
}
C 56100 47300 1 0 0 busripper-1.sym
{
T 56100 47700 5 8 0 0 0 0 1
device=none
}
C 49900 49400 1 0 0 gnd-1.sym
C 51100 50000 1 180 0 capacitor-1.sym
{
T 50500 50400 5 10 1 1 0 0 1
refdes=C3
T 50500 50200 5 10 1 1 0 0 1
value=22PF
T 50500 50000 5 10 1 1 0 0 1
footprint=0805
T 50900 49300 5 10 0 0 180 0 1
device=CAPACITOR
T 50900 49100 5 10 0 0 180 0 1
symversion=0.1
}
N 50000 49700 50000 49800 4
N 50000 49800 50200 49800 4
N 51100 49800 51300 49800 4
N 51300 49800 51300 49100 4
G 45500 40853 900 947 0 0 0
./symbols/osha-logo.svg
N 54700 47300 56100 47300 4
{
T 55600 47300 5 10 1 1 0 0 1
netname=A8
}
N 54700 47600 56100 47600 4
{
T 55600 47600 5 10 1 1 0 0 1
netname=A9
}
N 54700 47900 56100 47900 4
{
T 55600 47900 5 10 1 1 0 0 1
netname=A10
}
N 54700 48200 56100 48200 4
{
T 55600 48200 5 10 1 1 0 0 1
netname=A11
}
N 54700 48500 56100 48500 4
{
T 55600 48500 5 10 1 1 0 0 1
netname=A12
}
N 54700 48800 56100 48800 4
{
T 55600 48800 5 10 1 1 0 0 1
netname=A13
}
N 54700 49100 56100 49100 4
{
T 55600 49100 5 10 1 1 0 0 1
netname=A14
}
N 54700 49400 56100 49400 4
{
T 55600 49400 5 10 1 1 0 0 1
netname=A15
}
U 56300 44600 56300 47000 10 1
U 56300 47000 56800 47000 10 0
{
T 56500 47100 5 10 1 1 0 0 1
netname=AD
}
C 56100 45800 1 0 0 busripper-1.sym
{
T 56100 46200 5 8 0 0 0 0 1
device=none
}
C 56100 46100 1 0 0 busripper-1.sym
{
T 56100 46500 5 8 0 0 0 0 1
device=none
}
C 56100 46400 1 0 0 busripper-1.sym
{
T 56100 46800 5 8 0 0 0 0 1
device=none
}
C 56100 46700 1 0 0 busripper-1.sym
{
T 56100 47100 5 8 0 0 0 0 1
device=none
}
C 56100 44900 1 0 0 busripper-1.sym
{
T 56100 45300 5 8 0 0 0 0 1
device=none
}
C 56100 45200 1 0 0 busripper-1.sym
{
T 56100 45600 5 8 0 0 0 0 1
device=none
}
C 56100 45500 1 0 0 busripper-1.sym
{
T 56100 45900 5 8 0 0 0 0 1
device=none
}
C 56100 44600 1 0 0 busripper-1.sym
{
T 56100 45000 5 8 0 0 0 0 1
device=none
}
N 54700 44600 56100 44600 4
{
T 55600 44600 5 10 1 1 0 0 1
netname=AD0
}
N 54700 44900 56100 44900 4
{
T 55600 44900 5 10 1 1 0 0 1
netname=AD1
}
N 54700 45200 56100 45200 4
{
T 55600 45200 5 10 1 1 0 0 1
netname=AD2
}
N 54700 45500 56100 45500 4
{
T 55600 45500 5 10 1 1 0 0 1
netname=AD3
}
N 54700 45800 56100 45800 4
{
T 55600 45800 5 10 1 1 0 0 1
netname=AD4
}
N 54700 46100 56100 46100 4
{
T 55600 46100 5 10 1 1 0 0 1
netname=AD5
}
N 54700 46400 56100 46400 4
{
T 55600 46400 5 10 1 1 0 0 1
netname=AD6
}
N 54700 46700 56100 46700 4
{
T 55600 46700 5 10 1 1 0 0 1
netname=AD7
}
N 55900 44000 54700 44000 4
{
T 55400 44000 5 10 1 1 0 0 1
netname=ALE
}
C 49200 48100 1 0 0 resistor-1.sym
{
T 49500 48500 5 10 0 0 0 0 1
device=RESISTOR
T 49300 48600 5 10 1 1 0 0 1
refdes=R2
T 49300 48400 5 10 1 1 0 0 1
value=680
T 49700 48400 5 10 1 1 0 0 1
footprint=0805
}
N 48800 48200 49200 48200 4
{
T 49100 48200 5 10 0 0 0 0 1
netname=SYNC_LED
}
N 51400 43400 50200 43400 4
{
T 50200 43400 5 10 1 1 0 0 1
netname=\_RESET_IN\_
}
N 49500 44600 51400 44600 4
N 51400 45200 50200 45200 4
{
T 50200 45200 5 10 1 1 0 0 1
netname=INTR
}
N 51400 46100 50200 46100 4
{
T 50200 46100 5 10 1 1 0 0 1
netname=RST6.5
}
N 51400 46400 50200 46400 4
{
T 50200 46400 5 10 1 1 0 0 1
netname=RST7.5
}
N 51400 46700 50200 46700 4
{
T 50200 46700 5 10 1 1 0 0 1
netname=TRAP
}
N 51400 45800 50200 45800 4
{
T 50200 45800 5 10 1 1 0 0 1
netname=RST5.5
}
N 49500 44300 51400 44300 4
U 47000 47300 47900 47300 10 0
{
T 47400 47400 5 10 1 1 0 0 1
netname=A
}
U 47000 46200 47000 47300 10 1
U 41300 47300 40400 47300 10 0
{
T 40400 47400 5 10 1 1 0 0 1
netname=A
}
U 41300 47300 41300 46200 10 1
T 40100 40100 9 18 1 0 0 0 2
! RELEASED TO MANUFACTURING !
! Untested !
C 51400 41900 1 0 0 8085A-1.sym
{
T 52800 47000 5 10 1 1 0 0 1
device=8085A
T 52800 46800 5 10 1 1 0 0 1
footprint=DIP40
T 52800 47200 5 10 1 1 0 0 1
refdes=U1
}
N 55900 43700 54700 43700 4
{
T 55400 43700 5 10 1 1 0 0 1
netname=\_RD\_
}
N 55900 43400 54700 43400 4
{
T 55400 43400 5 10 1 1 0 0 1
netname=\_WR\_
}
N 48800 48100 48800 48200 4
C 48700 46800 1 0 0 gnd-1.sym
N 48800 47100 48800 47200 4
C 49300 44800 1 0 0 5V-plus-1.sym
N 49500 44800 49500 44600 4
C 49400 43900 1 0 0 gnd-1.sym
N 49500 44200 49500 44300 4
N 45400 45200 46800 45200 4
{
T 46200 45200 5 10 1 1 0 0 1
netname=AD6
}
N 45400 44900 46800 44900 4
{
T 46200 44900 5 10 1 1 0 0 1
netname=AD4
}
N 45400 44600 46800 44600 4
{
T 46200 44600 5 10 1 1 0 0 1
netname=AD2
}
N 45400 44300 46800 44300 4
{
T 46200 44300 5 10 1 1 0 0 1
netname=AD0
}
C 46800 44300 1 0 0 busripper-1.sym
{
T 46800 44700 5 8 0 0 0 0 1
device=none
}
C 46800 44600 1 0 0 busripper-1.sym
{
T 46800 45000 5 8 0 0 0 0 1
device=none
}
C 46800 44900 1 0 0 busripper-1.sym
{
T 46800 45300 5 8 0 0 0 0 1
device=none
}
C 46800 45200 1 0 0 busripper-1.sym
{
T 46800 45600 5 8 0 0 0 0 1
device=none
}
U 47000 44400 47000 45500 10 1
U 47000 45500 47900 45500 10 0
{
T 47400 45600 5 10 1 1 0 0 1
netname=AD
}
U 41300 45500 40400 45500 10 0
{
T 40400 45600 5 10 1 1 0 0 1
netname=AD
}
N 42900 44300 41500 44300 4
{
T 41600 44300 5 10 1 1 0 0 1
netname=AD1
}
C 41500 44300 1 90 0 busripper-1.sym
{
T 41100 44300 5 8 0 0 90 0 1
device=none
}
N 42900 44600 41500 44600 4
{
T 41600 44600 5 10 1 1 0 0 1
netname=AD3
}
C 41500 44600 1 90 0 busripper-1.sym
{
T 41100 44600 5 8 0 0 90 0 1
device=none
}
N 42900 44900 41500 44900 4
{
T 41600 44900 5 10 1 1 0 0 1
netname=AD5
}
C 41500 44900 1 90 0 busripper-1.sym
{
T 41100 44900 5 8 0 0 90 0 1
device=none
}
N 42900 45200 41500 45200 4
{
T 41600 45200 5 10 1 1 0 0 1
netname=AD7
}
C 41500 45200 1 90 0 busripper-1.sym
{
T 41100 45200 5 8 0 0 90 0 1
device=none
}
U 41300 45500 41300 44400 10 1
N 51400 47600 50200 47600 4
{
T 50200 47600 5 10 1 1 0 0 1
netname=SID
}
N 51400 47300 50200 47300 4
{
T 50200 47300 5 10 1 1 0 0 1
netname=SOD
}
N 55900 43100 54700 43100 4
{
T 55400 43100 5 10 1 1 0 0 1
netname=IO/\_M\_
}
N 55900 42800 54700 42800 4
{
T 55400 42800 5 10 1 1 0 0 1
netname=S0
}
N 55900 42500 54700 42500 4
{
T 55400 42500 5 10 1 1 0 0 1
netname=S1
}
N 51400 44900 50200 44900 4
{
T 50200 44900 5 10 1 1 0 0 1
netname=\_INTA\_
}
